91
378
581
736
956
1089
1653
1720
1867
2071
2864
3213
3366
3640
3805
4006
4473
4598
4925
5226
5813
6006
6803
7320
7512
7580
7635
9144
9337
9397
9837
10204
10635
10999
11133
11322
11506
11671
11925
12136
12636
20910
21091
21260
21839
22547
22783
23078
23276
23436
23744
24227
24454
25183
25528
25667
25778
26118
26311
26668
26805
26897
27196
27534
27795
28165
28561
28927
29811
30036
30267
30752
31426
31637
31823
31972
32346
32609
32763
32941
33108
33726
34028
34265
34470
34736
34886
35720
35983
36126
36384
37459
37773
38808
39400
39612
39895
40215
40313
40565
40714
40985
41140
41368
41457
41804
42222
42443
42672
43080
43242
43487
43656
43912
44141
45395
45576
45732
45918
46157
46266
46411
46803
47065
47378
47596
47777
48161
48492
48710
49526
49924
50514
50843
50896
51172
51656
51889
52106
52299
52520
52662
52903
53053
53243
53585
53713
53849
54302
54777
54937
55175
55373
55566
55878
56027
56113
56284
56465
56656
57206
57551
58036
58410
58537
58692
58817
59046
59271
59679
59859
60100
60169
60445
60717
60799
60995
61104
61211
61496
61668
62199
62484
62765
63158
63281
63386
63525
63636
63883
64203
64349
64453
64725
64924
65320
65566
65860
66040
66364
66741
66830
66954
67097
67202
67693
67927
68292
68336
68488
69040
69474
69779
70019
70306
70693
71065
71507
71876
72236
72624
72962
73292
73481
73797
74036
74190
74346
74576
74871
75051
75219
75473
75864
76047
76615
76857
76966
77146
77505
77823
78305
78748
79482
79683
80024
80219
80440
80800
81412
81956
82735
83003
83534
83997
84395
84743
85047
85395
85608
85905
86304
87270
87566
87895
88060
88183
88346
88518
89251
89538
89666
90031
90228
