3
5
9
11
15
17
21
23
27
29
33
35
39
41
45
47
51
53
57
59
63
65
69
71
75
77
81
83
87
89
93
95
99
101
105
107
111
113
117
119
123
125
129
131
135
137
141
143
147
149
153
155
159
161
165
167
171
173
177
179
183
185
189
191
195
197
201
203
207
209
213
215
219
221
225
227
231
233
237
239
243
245
249
251
255
257
261
263
267
269
273
275
279
281
285
287
291
293
297
299
303
305
309
311
315
317
321
323
327
329
333
335
339
341
345
347
351
353
357
359
363
365
369
371
375
377
381
383
387
389
393
395
399
401
405
407
411
413
417
419
423
425
429
431
435
437
441
443
447
449
453
455
459
461
465
467
471
473
477
479
483
485
489
491
495
497
501
503
507
509
513
515
519
521
525
527
531
533
537
539
543
545
549
551
555
557
561
563
567
569
573
575
579
581
585
587
591
593
597
599
603
605
609
611
615
617
621
623
627
629
633
635
639
641
645
647
651
653
657
659
663
665
669
671
675
677
681
683
687
689
693
695
699
701
705
707
711
713
717
719
723
725
729
731
735
737
741
743
747
749
753
755
759
761
765
767
771
773
777
779
783
785
789
791
795
797
801
803
807
809
813
815
819
821
825
827
831
833
837
839
843
845
849
851
855
857
861
863
867
869
873
875
879
881
885
887
891
893
897
899
903
905
909
911
915
917
921
923
927
929
933
935
939
941
945
947
951
953
957
959
963
965
969
971
975
977
981
983
987
989
993
995
999
1001
1005
1007
1011
1013
1017
1019
1023
1025
1029
1031
1035
1037
1041
1043
1047
1049
1053
1055
1059
1061
1065
1067
1071
1073
1077
1079
1083
1085
1089
1091
1095
1097
1101
1103
1107
1109
1113
1115
1119
1121
1125
1127
1131
1133
1137
1139
1143
1145
1149
1151
1155
1157
1161
1163
1167
1169
1173
1175
1179
1181
1185
1187
1191
1193
1197
1199
1203
1205
1209
1211
1215
1217
1221
1223
1227
1229
1233
1235
1239
1241
1245
1247
1251
1253
1257
1259
1263
1265
1269
1271
1275
1277
1281
1283
1287
1289
1293
1295
1299
1301
1305
1307
1311
1313
1317
1319
1323
1325
1329
1331
1335
1337
1341
1343
1347
1349
1353
1355
1359
1361
1365
1367
1371
1373
1377
1379
1383
1385
1389
1391
1395
1397
1401
1403
1407
1409
1413
1415
1419
1421
1425
1427
1431
1433
1437
1439
1443
1445
1449
1451
1455
1457
1461
1463
1467
1469
1473
1475
1479
1481
1485
1487
1491
1493
1497
1499
1503
1505
1509
1511
1515
1517
1521
1523
1527
1529
1533
1535
1539
1541
1545
1547
1551
1553
1557
1559
1563
1565
1569
1571
1575
1577
1581
1583
1587
1589
1593
1595
1599
1601
1605
1607
1611
1613
1617
1619
1623
1625
1629
1631
1635
1637
1641
1643
1647
1649
1653
1655
1659
1661
1665
1667
1671
1673
1677
1679
1683
1685
1689
1691
1695
1697
1701
1703
1707
1709
1713
1715
1719
1721
1725
1727
1731
1733
1737
1739
1743
1745
1749
1751
1755
1757
1761
1763
1767
1769
1773
1775
1779
1781
1785
1787
1791
1793
1797
1799
1803
1805
1809
1811
1815
1817
1821
1823
1827
1829
1833
1835
1839
1841
1845
1847
1851
1853
1857
1859
1863
1865
1869
1871
1875
1877
1881
1883
1887
1889
1893
1895
1899
1901
1905
1907
1911
1913
1917
1919
1923
1925
1929
1931
1935
1937
1941
1943
1947
1949
1953
1955
1959
1961
1965
1967
1971
1973
1977
1979
1983
1985
1989
1991
1995
1997
2001
2003
2007
2009
2013
2015
2019
2021
2025
2027
2031
2033
2037
2039
2043
2045
2049
2051
2055
2057
2061
2063
2067
2069
2073
2075
2079
2081
2085
2087
2091
2093
2097
2099
2103
2105
2109
2111
2115
2117
2121
2123
2127
2129
2133
2135
2139
2141
2145
2147
2151
2153
2157
2159
2163
2165
2169
2171
2175
2177
2181
2183
2187
2189
2193
2195
2199
2201
2205
2207
2211
2213
2217
2219
2223
2225
2229
2231
2235
2237
2241
2243
2247
2249
2253
2255
2259
2261
2265
2267
2271
2273
2277
2279
2283
2285
2289
2291
2295
2297
2301
2303
2307
2309
2313
2315
2319
2321
2325
2327
2331
2333
2337
2339
2343
2345
2349
2351
2355
2357
2361
2363
2367
2369
2373
2375
2379
2381
2385
2387
2391
2393
2397
2399
2403
2405
2409
2411
2415
2417
2421
2423
2427
2429
2433
2435
2439
2441
2445
2447
2451
2453
2457
2459
2463
2465
2469
2471
2475
2477
2481
2483
2487
2489
2493
2495
2499
2501
2505
2507
2511
2513
2517
2519
2523
2525
2529
2531
2535
2537
2541
2543
2547
2549
2553
2555
2559
2561
2565
2567
2571
2573
2577
2579
2583
2585
2589
2591
2595
2597
2601
2603
2607
2609
2613
2615
2619
2621
2625
2627
2631
2633
2637
2639
2643
2645
2649
2651
2655
2657
2661
2663
2667
2669
2673
2675
2679
2681
2685
2687
2691
2693
2697
2699
2703
2705
2709
2711
2715
2717
2721
2723
2727
2729
2733
2735
2739
2741
2745
2747
2751
2753
2757
2759
2763
2765
2769
2771
2775
2777
2781
2783
2787
2789
2793
2795
2799
2801
2805
2807
2811
2813
2817
2819
2823
2825
2829
2831
2835
2837
2841
2843
2847
2849
2853
2855
2859
2861
2865
2867
2871
2873
2877
2879
2883
2885
2889
2891
2895
2897
2901
2903
2907
2909
2913
2915
2919
2921
2925
2927
2931
2933
2937
2939
2943
2945
2949
2951
2955
2957
2961
2963
2967
2969
2973
2975
2979
2981
2985
2987
2991
2993
2997
2999
3003
3005
3009
3011
3015
3017
3021
3023
3027
3029
3033
3035
3039
3041
3045
3047
3051
3053
3057
3059
3063
3065
3069
3071
3075
3077
3081
3083
3087
3089
3093
3095
3099
3101
3105
3107
3111
3113
3117
3119
3123
3125
3129
3131
3135
3137
3141
3143
3147
3149
3153
3155
3159
3161
3165
3167
3171
3173
3177
3179
3183
3185
3189
3191
3195
3197
3201
3203
3207
3209
3213
3215
3219
3221
3225
3227
3231
3233
3237
3239
3243
3245
3249
3251
3255
3257
3261
3263
3267
3269
3273
3275
3279
3281
3285
3287
3291
3293
3297
3299
3303
3305
3309
3311
3315
3317
3321
3323
3327
3329
3333
3335
3339
3341
3345
3347
3351
3353
3357
3359
3363
3365
3369
3371
3375
3377
3381
3383
3387
3389
3393
3395
3399
3401
3405
3407
3411
3413
3417
3419
3423
3425
3429
3431
3435
3437
3441
3443
3447
3449
3453
3455
3459
3461
3465
3467
3471
3473
3477
3479
3483
3485
3489
3491
3495
3497
3501
3503
3507
3509
3513
3515
3519
3521
3525
3527
3531
3533
3537
3539
3543
3545
3549
3551
3555
3557
3561
3563
3567
3569
3573
3575
3579
3581
3585
3587
3591
3593
3597
3599
3603
3605
3609
3611
3615
3617
3621
3623
3627
3629
3633
3635
3639
3641
3645
3647
3651
3653
3657
3659
3663
3665
3669
3671
3675
3677
3681
3683
3687
3689
3693
3695
3699
3701
3705
3707
3711
3713
3717
3719
3723
3725
3729
3731
3735
3737
3741
3743
3747
3749
3753
3755
3759
3761
3765
3767
3771
3773
3777
3779
3783
3785
3789
3791
3795
3797
3801
3803
3807
3809
3813
3815
3819
3821
3825
3827
3831
3833
3837
3839
3843
3845
3849
3851
3855
3857
3861
3863
3867
3869
3873
3875
3879
3881
3885
3887
3891
3893
3897
3899
3903
3905
3909
3911
3915
3917
3921
3923
3927
3929
3933
3935
3939
3941
3945
3947
3951
3953
3957
3959
3963
3965
3969
3971
3975
3977
3981
3983
3987
3989
3993
3995
3999
4001
4005
4007
4011
4013
4017
4019
4023
4025
4029
4031
4035
4037
4041
4043
4047
4049
4053
4055
4059
4061
4065
4067
4071
4073
4077
4079
4083
4085
4089
4091
4095
4097
4101
4103
4107
4109
4113
4115
4119
4121
4125
4127
4131
4133
4137
4139
4143
4145
4149
4151
4155
4157
4161
4163
4167
4169
4173
4175
4179
4181
4185
4187
4191
4193
4197
4199
4203
4205
4209
4211
4215
4217
4221
4223
4227
4229
4233
4235
4239
4241
4245
4247
4251
4253
4257
4259
4263
4265
4269
4271
4275
4277
4281
4283
4287
4289
4293
4295
4299
4301
4305
4307
4311
4313
4317
4319
4323
4325
4329
4331
4335
4337
4341
4343
4347
4349
4353
4355
4359
4361
4365
4367
4371
4373
4377
4379
4383
4385
4389
4391
4395
4397
4401
4403
4407
4409
4413
4415
4419
4421
4425
4427
4431
4433
4437
4439
4443
4445
4449
4451
4455
4457
4461
4463
4467
4469
4473
4475
4479
4481
4485
4487
4491
4493
4497
4499
4503
4505
4509
4511
4515
4517
4521
4523
4527
4529
4533
4535
4539
4541
4545
4547
4551
4553
4557
4559
4563
4565
4569
4571
4575
4577
4581
4583
4587
4589
4593
4595
4599
4601
4605
4607
4611
4613
4617
4619
4623
4625
4629
4631
4635
4637
4641
4643
4647
4649
4653
4655
4659
4661
4665
4667
4671
4673
4677
4679
4683
4685
4689
4691
4695
4697
4701
4703
4707
4709
4713
4715
4719
4721
4725
4727
4731
4733
4737
4739
4743
4745
4749
4751
4755
4757
4761
4763
4767
4769
4773
4775
4779
4781
4785
4787
4791
4793
4797
4799
4803
4805
4809
4811
4815
4817
4821
4823
4827
4829
4833
4835
4839
4841
4845
4847
4851
4853
4857
4859
4863
4865
4869
4871
4875
4877
4881
4883
4887
4889
4893
4895
4899
4901
4905
4907
4911
4913
4917
4919
4923
4925
4929
4931
4935
4937
4941
4943
4947
4949
4953
4955
4959
4961
4965
4967
4971
4973
4977
4979
4983
4985
4989
4991
4995
4997
5001
5003
5007
5009
5013
5015
5019
5021
5025
5027
5031
5033
5037
5039
5043
5045
5049
5051
5055
5057
5061
5063
5067
5069
5073
5075
5079
5081
5085
5087
5091
5093
5097
5099
5103
5105
5109
5111
5115
5117
5121
5123
5127
5129
5133
5135
5139
5141
5145
5147
5151
5153
5157
5159
5163
5165
5169
5171
5175
5177
5181
5183
5187
5189
5193
5195
5199
5201
5205
5207
5211
5213
5217
5219
5223
5225
5229
5231
5235
5237
5241
5243
5247
5249
5253
5255
5259
5261
5265
5267
5271
5273
5277
5279
5283
5285
5289
5291
5295
5297
5301
5303
5307
5309
5313
5315
5319
5321
5325
5327
5331
5333
5337
5339
5343
5345
5349
5351
5355
5357
5361
5363
5367
5369
5373
5375
5379
5381
5385
5387
5391
5393
5397
5399
5403
5405
5409
5411
5415
5417
5421
5423
5427
5429
5433
5435
5439
5441
5445
5447
5451
5453
5457
5459
5463
5465
5469
5471
5475
5477
5481
5483
5487
5489
5493
5495
5499
5501
5505
5507
5511
5513
5517
5519
5523
5525
5529
5531
5535
5537
5541
5543
5547
5549
5553
5555
5559
5561
5565
5567
5571
5573
5577
5579
5583
5585
5589
5591
5595
5597
5601
5603
5607
5609
5613
5615
5619
5621
5625
5627
5631
5633
5637
5639
5643
5645
5649
5651
5655
5657
5661
5663
5667
5669
5673
5675
5679
5681
5685
5687
5691
5693
5697
5699
5703
5705
5709
5711
5715
5717
5721
5723
5727
5729
5733
5735
5739
5741
5745
5747
5751
5753
5757
5759
5763
5765
5769
5771
5775
5777
5781
5783
5787
5789
5793
5795
5799
5801
5805
5807
5811
5813
5817
5819
5823
5825
5829
5831
5835
5837
5841
5843
5847
5849
5853
5855
5859
5861
5865
5867
5871
5873
5877
5879
5883
5885
5889
5891
5895
5897
5901
5903
5907
5909
5913
5915
5919
5921
5925
5927
5931
5933
5937
5939
5943
5945
5949
5951
5955
5957
5961
5963
5967
5969
5973
5975
5979
5981
5985
5987
5991
5993
5997
5999
6003
6005
6009
6011
6015
6017
6021
6023
6027
6029
6033
6035
6039
6041
6045
6047
6051
6053
6057
6059
6063
6065
6069
6071
6075
6077
6081
6083
6087
6089
6093
6095
6099
6101
6105
6107
6111
6113
6117
6119
6123
6125
6129
6131
6135
6137
6141
6143
6147
6149
6153
6155
6159
6161
6165
6167
6171
6173
6177
6179
6183
6185
6189
6191
6195
6197
6201
6203
6207
6209
6213
6215
6219
6221
6225
6227
6231
6233
6237
6239
6243
6245
6249
6251
6255
6257
6261
6263
6267
6269
6273
6275
6279
6281
6285
6287
6291
6293
6297
6299
6303
6305
6309
6311
6315
6317
6321
6323
6327
6329
6333
6335
6339
6341
6345
6347
6351
6353
6357
6359
6363
6365
6369
6371
6375
6377
6381
6383
6387
6389
6393
6395
6399
6401
6405
6407
6411
6413
6417
6419
6423
6425
6429
6431
6435
6437
6441
6443
6447
6449
6453
6455
6459
6461
6465
6467
6471
6473
6477
6479
6483
6485
6489
6491
6495
6497
6501
6503
6507
6509
6513
6515
6519
6521
6525
6527
6531
6533
6537
6539
6543
6545
6549
6551
6555
6557
6561
6563
6567
6569
6573
6575
6579
6581
6585
6587
6591
6593
6597
6599
6603
6605
6609
6611
6615
6617
6621
6623
6627
6629
6633
6635
6639
6641
6645
6647
6651
6653
6657
6659
6663
6665
6669
6671
6675
6677
6681
6683
6687
6689
6693
6695
6699
6701
6705
6707
6711
6713
6717
6719
6723
6725
6729
6731
6735
6737
6741
6743
6747
6749
6753
6755
6759
6761
6765
6767
6771
6773
6777
6779
6783
6785
6789
6791
6795
6797
6801
6803
6807
6809
6813
6815
6819
6821
6825
6827
6831
6833
6837
6839
6843
6845
6849
6851
6855
6857
6861
6863
6867
6869
6873
6875
6879
6881
6885
6887
6891
6893
6897
6899
6903
6905
6909
6911
6915
6917
6921
6923
6927
6929
6933
6935
6939
6941
6945
6947
6951
6953
6957
6959
6963
6965
6969
6971
6975
6977
6981
6983
6987
6989
6993
6995
6999
7001
7005
7007
7011
7013
7017
7019
7023
7025
7029
7031
7035
7037
7041
7043
7047
7049
7053
7055
7059
7061
7065
7067
7071
7073
7077
7079
7083
7085
7089
7091
7095
7097
7101
7103
7107
7109
7113
7115
7119
7121
7125
7127
7131
7133
7137
7139
7143
7145
7149
7151
7155
7157
7161
7163
7167
7169
7173
7175
7179
7181
7185
7187
7191
7193
7197
7199
7203
7205
7209
7211
7215
7217
7221
7223
7227
7229
7233
7235
7239
7241
7245
7247
7251
7253
7257
7259
7263
7265
7269
7271
7275
7277
7281
7283
7287
7289
7293
7295
7299
7301
7305
7307
7311
7313
7317
7319
7323
7325
7329
7331
7335
7337
7341
7343
7347
7349
7353
7355
7359
7361
7365
7367
7371
7373
7377
7379
7383
7385
7389
7391
7395
7397
7401
7403
7407
7409
7413
7415
7419
7421
7425
7427
7431
7433
7437
7439
7443
7445
7449
7451
7455
7457
7461
7463
7467
7469
7473
7475
7479
7481
7485
7487
7491
7493
7497
7499
7503
7505
7509
7511
7515
7517
7521
7523
7527
7529
7533
7535
7539
7541
7545
7547
7551
7553
7557
7559
7563
7565
7569
7571
7575
7577
7581
7583
7587
7589
7593
7595
7599
7601
7605
7607
7611
7613
7617
7619
7623
7625
7629
7631
7635
7637
7641
7643
7647
7649
7653
7655
7659
7661
7665
7667
7671
7673
7677
7679
7683
7685
7689
7691
7695
7697
7701
7703
7707
7709
7713
7715
7719
7721
7725
7727
7731
7733
7737
7739
7743
7745
7749
7751
7755
7757
7761
7763
7767
7769
7773
7775
7779
7781
7785
7787
7791
7793
7797
7799
7803
7805
7809
7811
7815
7817
7821
7823
7827
7829
7833
7835
7839
7841
7845
7847
7851
7853
7857
7859
7863
7865
7869
7871
7875
7877
7881
7883
7887
7889
7893
7895
7899
7901
7905
7907
7911
7913
7917
7919
7923
7925
7929
7931
7935
7937
7941
7943
7947
7949
7953
7955
7959
7961
7965
7967
7971
7973
7977
7979
7983
7985
7989
7991
7995
7997
8001
8003
8007
8009
8013
8015
8019
8021
8025
8027
8031
8033
8037
8039
8043
8045
8049
8051
8055
8057
8061
8063
8067
8069
8073
8075
8079
8081
8085
8087
8091
8093
8097
8099
8103
8105
8109
8111
8115
8117
8121
8123
8127
8129
8133
8135
8139
8141
8145
8147
8151
8153
8157
8159
8163
8165
8169
8171
8175
8177
8181
8183
8187
8189
8193
8195
8199
8201
8205
8207
8211
8213
8217
8219
8223
8225
8229
8231
8235
8237
8241
8243
8247
8249
8253
8255
8259
8261
8265
8267
8271
8273
8277
8279
8283
8285
8289
8291
8295
8297
8301
8303
8307
8309
8313
8315
8319
8321
8325
8327
8331
8333
8337
8339
8343
8345
8349
8351
8355
8357
8361
8363
8367
8369
8373
8375
8379
8381
8385
8387
8391
8393
8397
8399
8403
8405
8409
8411
8415
8417
8421
8423
8427
8429
8433
8435
8439
8441
8445
8447
8451
8453
8457
8459
8463
8465
8469
8471
8475
8477
8481
8483
8487
8489
8493
8495
8499
8501
8505
8507
8511
8513
8517
8519
8523
8525
8529
8531
8535
8537
8541
8543
8547
8549
8553
8555
8559
8561
8565
8567
8571
8573
8577
8579
8583
8585
8589
8591
8595
8597
8601
8603
8607
8609
8613
8615
8619
8621
8625
8627
8631
8633
8637
8639
8643
8645
8649
8651
8655
8657
8661
8663
8667
8669
8673
8675
8679
8681
8685
8687
8691
8693
8697
8699
8703
8705
8709
8711
8715
8717
8721
8723
8727
8729
8733
8735
8739
8741
8745
8747
8751
8753
8757
8759
8763
8765
8769
8771
8775
8777
8781
8783
8787
8789
8793
8795
8799
8801
8805
8807
8811
8813
8817
8819
8823
8825
8829
8831
8835
8837
8841
8843
8847
8849
8853
8855
8859
8861
8865
8867
8871
8873
8877
8879
8883
8885
8889
8891
8895
8897
8901
8903
8907
8909
8913
8915
8919
8921
8925
8927
8931
8933
8937
8939
8943
8945
8949
8951
8955
8957
8961
8963
8967
8969
8973
8975
8979
8981
8985
8987
8991
8993
8997
8999
