1
4
5
7
9
10
11
13
15
16
18
20
22
23
25
27
29
32
34
36
38
40
42
44
46
48
50
52
54
55
57
59
60
61
63
65
66
68
70
72
73
75
77
79
82
84
86
88
90
92
94
96
98
100
102
104
105
107
109
110
111
113
115
116
118
120
122
123
125
127
129
132
134
136
138
140
142
144
146
148
150
152
154
156
158
160
162
164
167
169
171
173
176
178
181
183
185
187
189
192
193
195
198
200
202
204
206
208
210
212
214
218
220
222
224
226
230
235
237
238
240
243
245
247
249
252
253
254
255
258
259
260
263
266
267
268
271
272
273
276
279
281
283
285
288
291
294
296
298
300
302
304
306
309
312
315
318
321
322
323
325
327
329
331
333
335
336
337
339
340
343
344
347
348
351
352
355
356
359
360
362
363
366
367
370
371
374
375
378
379
382
383
385
386
388
391
394
396
398
400
402
403
405
407
409
411
412
415
416
419
420
423
424
427
428
431
432
434
435
437
440
443
446
449
451
453
455
457
458
461
462
465
466
469
470
473
474
477
478
480
481
484
485
488
489
492
493
496
497
500
501
503
504
506
509
512
514
516
518
519
521
523
525
527
528
531
532
535
536
539
540
543
544
547
548
550
554
555
558
559
562
563
566
567
570
571
574
575
577
578
580
582
584
585
587
589
591
593
595
596
599
600
603
604
607
608
611
612
615
616
618
619
621
622
625
626
629
630
633
634
637
638
641
643
645
647
650
651
652
654
655
656
658
659
661
662
663
665
666
668
669
670
672
673
675
676
677
679
680
682
683
684
686
688
691
693
695
697
700
703
704
706
709
711
713
715
717
719
721
724
726
728
729
733
737
739
741
742
744
746
748
751
753
756
759
761
764
765
767
770
772
775
777
780
782
784
785
789
791
793
794
795
798
800
802
803
804
807
809
811
812
816
818
820
821
822
825
827
828
830
833
836
839
841
843
845
847
849
851
853
856
857
861
862
863
865
868
871
872
874
875
877
878
881
884
887
888
890
893
895
899
900
902
905
907
910
911
913
915
917
919
920
922
926
927
929
930
932
934
936
938
940
942
943
945
948
950
952
954
957
961
965
966
968
969
971
975
976
978
979
981
982
985
988
991
992
994
995
997
1000
1001
1003
1004
1006
1009
1012
1015
1018
1019
1021
1022
1024
1027
1030
1032
1033
1035
1038
1041
1043
1045
1048
1050
1053
1054
1056
1058
1060
1062
1063
1065
1069
1070
1072
1073
1075
1077
1079
1081
1083
1085
1086
1088
1091
1093
1095
1097
1099
1102
1104
1107
1108
1110
1112
1114
1116
1117
1119
1123
1124
1126
1127
1129
1131
1133
1135
1137
1139
1140
1142
1145
1147
1149
1151
1153
1155
1157
1158
1159
1161
1162
1164
1165
1167
1169
1171
1173
1175
1178
1179
1181
1183
1185
1187
1188
1190
1194
1195
1197
1198
1200
1202
1204
1206
1208
1210
1211
1213
1216
1219
1220
1222
1224
1225
1227
1229
1231
1232
1233
1235
1237
1239
1243
1244
1246
1248
1251
1254
1256
1258
1260
1264
1266
1268
1271
1273
1275
1277
1279
1280
1281
1283
1284
1286
1287
1289
1290
1292
1294
1296
1299
1302
1304
1305
1308
1311
1314
1316
1317
1320
1323
1326
1328
1330
1332
1335
1337
1339
1341
1345
1349
1352
1354
1357
1360
1362
1364
1366
1368
1372
1376
1378
1380
1384
1388
1390
1392
1394
1396
1398
1402
1404
1406
1410
1414
1416
1418
1420
1422
1424
1426
1427
1428
1430
1432
1433
1434
1435
1438
1439
1441
1442
1443
1447
1451
1455
1458
1459
1461
1462
1463
1466
1467
1469
1470
1471
1475
1479
1483
1486
1487
1489
1490
1491
1495
1499
1502
1503
1505
1506
1507
1511
1515
1519
1523
1527
1531
1535
1539
1543
1547
1550
1551
1553
1554
1555
1559
1563
1567
1570
1571
1574
1576
1577
1578
1581
1582
1584
1585
1586
1589
1590
1592
1594
1597
1598
1600
1602
1603
1605
1607
1609
1610
1611
1613
1615
1617
1621
1622
1624
1626
1629
1632
1634
1636
1638
1642
1646
1650
1654
1658
1662
1666
1670
1674
1676
1678
1680
1681
1682
1684
1686
1687
1688
1689
1692
1694
1696
1700
1701
1702
1705
1707
1711
1712
1713
1716
1718
1721
1725
1728
1731
1732
1733
1736
1738
1741
1744
1747
1750
1753
1756
1759
1760
1761
1764
1766
1768
1772
1775
1776
1777
1780
1782
1784
1787
1791
1794
1798
1802
1803
1804
1807
1809
1812
1816
1817
1818
1822
1825
1827
1830
1832
1835
1839
1842
1846
1848
1850
1852
1853
1854
1856
1858
1859
1861
1862
1863
1865
1866
1868
1870
1871
1872
1874
1875
1877
1879
1881
1884
1885
1886
1888
1889
1890
1892
1894
1895
1897
1898
1899
1901
1902
1904
1906
1907
1908
1910
1911
1913
1915
1916
1918
1921
1924
1927
1928
1930
1932
1934
1935
1936
1938
1940
1941
1943
1944
1945
1947
1948
1950
1952
1953
1954
1956
1957
1959
1961
1963
1965
1967
1969
1970
1971
1973
1976
1977
1979
1982
1985
1988
1989
1991
1994
1997
1998
2000
2003
2004
2006
2007
2009
2010
2012
2015
2018
2020
2022
2023
2025
2029
2031
2033
2035
2037
2040
2041
2042
2044
2047
2048
2050
2053
2055
2058
2060
2063
2065
2067
2069
2072
2074
2077
2080
2084
2087
2090
2093
2096
2099
2101
2104
2105
2107
2109
2110
2112
2114
2116
2117
2118
2120
2122
2124
2128
2129
2131
2133
2136
2139
2141
2143
2145
2147
2148
2150
2152
2153
2155
2157
2158
2160
2162
2165
2167
2170
2173
2176
2179
2182
2185
2186
2188
2190
2194
2196
2200
2203
2207
2210
2213
2214
2216
2218
2222
2224
2228
2231
2235
2238
2242
2243
2245
2247
2251
2254
2258
2261
2264
2268
2269
2271
2273
2274
2276
2277
2279
2282
2285
2288
2289
2291
2292
2294
2297
2300
2303
2304
2306
2307
2309
2312
2316
2320
2324
2325
2327
2328
2330
2333
2336
2339
2342
2345
2348
2351
2354
2355
2357
2358
2360
2363
2366
2369
2372
2374
2376
2378
2380
2381
2385
2389
2393
2394
2396
2399
2402
2406
2408
2410
2412
2413
2415
2417
2419
2422
2424
2426
2429
2432
2434
2436
2438
2440
2442
2443
2447
2451
2454
2457
2459
2462
2465
2469
2472
2475
2479
2483
2486
2488
2490
2493
2496
2498
2501
2505
2506
2510
2514
2518
2522
2525
2528
2531
2535
2538
2540
2542
2545
2548
2550
2552
2554
2558
2561
2564
2568
2570
2573
2576
2579
2582
2584
2586
2589
2592
2594
2596
2597
2601
2604
2608
2612
2615
2618
2621
2624
2626
2628
2631
2634
2636
2639
2642
2644
2646
2648
2650
2652
2654
2658
2662
2666
2669
2672
2676
2679
2681
2683
2686
2689
2691
2695
2699
2702
2703
2707
2710
2714
2716
2718
2721
2725
2729
2731
2733
2735
2738
2741
2745
2748
2751
2753
2755
2758
2761
2763
2766
2769
2771
2773
2774
2778
2781
2784
2786
2788
2791
2794
2796
2798
2800
2803
2807
2809
2811
2813
2817
2820
2822
2823
2826
2829
2832
2834
2836
2838
2840
2843
2846
2849
2851
2853
2855
2856
2857
2859
2861
2862
2864
2865
2867
2869
2870
2872
2876
2877
2879
2881
2885
2887
2889
2891
2893
2895
2897
2898
2900
2901
2903
2907
2910
2913
2916
2918
2919
2921
2922
2924
2925
2928
2931
2934
2936
2939
2940
2942
2944
2945
2947
2948
2950
2952
2953
2955
2957
2958
2960
2961
2963
2966
2968
2969
2971
2972
2974
2977
2980
2981
2983
2986
2989
2991
2994
2997
2998
3000
3003
3006
3008
3009
3011
3012
3014
3017
3018
3020
3021
3023
3026
3029
3030
3032
3035
3038
3040
3043
3046
3047
3049
3052
3055
3057
3058
3060
3061
3063
3066
3068
3071
3073
3074
3076
3077
3079
3080
3081
3082
3085
3086
3087
3090
3091
3093
3095
3096
3098
3101
3105
3106
3108
3111
3115
3118
3120
3123
3124
3127
3130
3132
3134
3135
3138
3141
3143
3145
3146
3149
3152
3154
3156
3157
3160
3163
3165
3167
3172
3173
3176
3179
3182
3185
3188
3191
3194
3197
3200
3203
3204
3205
3208
3209
3211
3212
3214
3215
3218
3219
3222
3223
3226
3227
3230
3231
3234
3235
3238
3239
3242
3243
3246
3247
3249
3250
3253
3254
3257
3258
3261
3262
3265
3266
3269
3270
3273
3274
3276
3277
3280
3281
3284
3285
3288
3289
3292
3293
3296
3297
3300
3301
3304
3305
3308
3309
3312
3313
3316
3317
3320
3321
3323
3324
3325
3327
3329
3330
3332
3334
3335
3337
3338
3340
3341
3343
3345
3346
3348
3353
3361
3362
3363
3366
3367
3370
3371
3374
3375
3378
3379
3382
3383
3386
3387
3390
3391
3394
3395
3397
3398
3401
3402
3405
3406
3409
3410
3413
3414
3417
3418
3421
3422
3425
3426
3428
3429
3432
3433
3436
3437
3438
3441
3442
3444
3446
3447
3451
3452
3453
3454
3455
3456
3457
3458
3462
3463
3464
3466
3469
3472
3475
3478
3481
3484
3487
3490
3493
3494
3496
3502
3508
3514
3520
3526
3532
3538
3544
3550
3551
3553
3556
3559
3562
3565
3568
3571
3574
3577
3580
3581
3583
3586
3589
3592
3595
3598
3601
3604
3607
3610
3611
3612
3613
3614
3617
3618
3623
3624
3625
3626
3627
3628
3629
3630
3631
3632
3633
3634
3635
3636
3637
3640
3641
3642
3643
3644
3645
3646
3647
3648
3649
3650
3651
3652
3658
3659
3660
3661
3662
3663
3664
3667
3668
3669
3670
3671
3672
3673
3674
3675
3676
3677
3680
3681
3682
3683
3684
3685
3686
3687
3689
3692
3693
3694
3695
3696
3697
3698
3699
3700
3701
3702
3703
3704
3705
3706
3709
3710
3711
3712
3713
3714
3717
3718
3721
3722
3723
3724
3726
3727
3728
3729
3730
3731
3732
3733
3736
3737
3738
3739
3740
3741
3742
3743
3744
3745
3748
3749
3750
3751
3752
3753
3757
3758
3759
3760
3761
3764
3765
3766
3767
3769
3770
3771
3772
3773
3776
3777
3778
3779
3780
3781
3782
3783
3784
3785
3786
3787
3788
3789
3790
3791
3792
3793
3794
3795
3796
3797
3798
3799
3800
3801
3802
3803
3804
3805
3806
3807
3808
3809
3810
3811
3812
3813
3814
3815
3816
3817
3818
3819
3820
3821
3822
3823
3824
3825
3826
3827
3828
3829
3830
3831
3832
3833
3834
3835
3836
3837
3838
3839
3840
3841
3844
3845
3848
3849
3850
3851
3852
3853
3854
3858
3859
3860
3863
3864
3865
3866
3875
3876
3882
3886
3890
3891
3892
3893
3894
3895
3896
3899
3903
3904
3908
3909
3910
3913
3914
3915
3916
3917
3918
3920
3921
3922
3923
3924
3927
3928
3933
3934
3935
3938
3939
3940
3943
3944
3945
3946
3947
3948
3949
3950
3951
3952
3953
3956
3957
3958
3959
3960
3961
3962
3963
3964
3965
3966
3967
3968
3974
3975
3976
3977
3978
3979
3980
3983
3984
3985
3986
3987
3988
3989
3990
3991
3992
3993
3994
3995
3996
3997
3998
3999
4000
4002
4005
4006
4007
4008
4009
4010
4011
4012
4013
4014
4015
4016
4017
4018
4019
4022
4023
4024
4025
4026
4027
4030
4031
4034
4035
4036
4037
4039
4040
4041
4042
4043
4044
4045
4046
4049
4050
4051
4052
4053
4054
4055
4056
4057
4058
4061
4062
4063
4064
4065
4066
4068
4069
4070
4071
4072
4073
4074
4075
4076
4077
4078
4079
4080
4081
4082
4083
4084
4085
4088
4089
4092
4093
4094
4095
4096
4097
4098
4102
4103
4104
4105
4106
4109
4110
4113
4114
4117
4118
4122
4123
4127
4128
4131
4132
4135
4136
4139
4140
4144
4149
4150
4151
4154
4155
4156
4157
4158
4159
4160
4161
4162
4163
4164
4165
4166
4169
4170
4171
4172
4174
4175
4176
4177
4178
4179
4180
4181
4182
4183
4184
4185
4186
4187
4188
4189
4192
4193
4194
4195
4196
4197
4198
4199
4200
4201
4202
4203
4204
4205
4206
4207
4208
4209
4211
4214
4215
4216
4217
4218
4219
4220
4221
4222
4223
4224
4225
4226
4227
4228
4229
4230
4231
4232
4233
4234
4238
4239
4240
4241
4242
4243
4244
4245
4246
4247
4248
4249
4250
4251
4252
4253
4254
4255
4256
4257
4258
4259
4260
4261
4262
4263
4264
4265
4266
4267
4268
4269
4270
4271
4272
4273
4274
4275
4276
4277
4278
4279
4280
4281
4282
4283
4284
4285
4286
4287
4288
4289
4290
4291
4292
4293
4294
4295
4296
4297
4298
4299
4300
4301
4302
4306
4307
4308
4311
4312
4313
4314
4323
4324
4330
4334
4338
4339
4340
4341
4342
4343
4344
4346
4348
4350
4352
4356
4357
4358
4361
4362
4363
4364
4365
4366
4368
4369
4370
4371
4372
4375
4376
4378
4379
4380
4381
4383
4384
4385
4386
4387
4388
4389
4390
4393
4394
4395
4396
4397
4398
4399
4400
4401
4402
4405
4406
4407
4408
4409
4410
4412
4413
4414
4415
4416
4417
4418
4419
4420
4421
4422
4423
4424
4425
4426
4427
4428
4429
4432
4433
4436
4437
4438
4439
4440
4441
4442
4446
4447
4448
4449
4450
4454
4455
4456
4459
4460
4462
4463
4466
4468
4472
4473
4474
4475
4476
4479
4480
4483
4484
4487
4488
4492
4493
4497
4498
4501
4502
4505
4506
4509
4510
4514
4518
4519
4520
4523
4524
4525
4526
4535
4536
4542
4546
4550
4551
4552
4553
4554
4560
4561
4563
4567
4568
4569
4570
4571
4572
4573
4574
4575
4576
4577
4581
4582
4583
4584
4585
4586
4588
4591
4592
4593
4594
4595
4596
4597
4603
4604
4605
4606
4607
4610
4611
4612
4613
4614
4615
4616
4622
4623
4624
4625
4626
4630
4631
4632
4635
4636
4637
4638
4647
4648
4654
4658
4662
4663
4664
4665
4666
4667
4668
4670
4674
4675
4678
4679
4680
4686
4692
4696
4697
4698
4701
4702
4704
4705
4710
4712
4715
4721
4724
4730
4731
4732
4733
4739
4743
4747
4748
4749
4750
4751
4752
4753
4754
4755
4756
4757
4761
4762
4763
4766
4767
4768
4769
4778
4779
4785
4789
4793
4794
4795
4796
4797
4798
4799
4801
4803
4804
4805
4806
4809
4811
4812
4815
4817
4819
4821
4822
4824
4826
4827
4829
4831
4832
4834
4836
4837
4839
4841
4842
4844
4846
4847
4849
4851
4853
4856
4866
4868
4869
4872
4873
4874
4877
4878
4884
4888
4892
4893
4894
4897
4900
4901
4902
4905
4906
4912
4916
4920
4921
4922
4925
4928
4929
4930
4933
4934
4940
4944
4948
4949
4950
4953
4956
4957
4958
4961
4962
4968
4972
4976
4977
4978
4981
4984
4985
4986
4989
4990
4992
4993
4996
4999
5000
5001
5004
5005
5007
5008
5011
5014
5015
5016
5019
5020
5022
5023
5026
5029
5030
5031
5034
5035
5037
5038
5041
5045
5046
5047
5050
5051
5052
5053
5054
5055
5059
5060
5061
5063
5066
5069
5072
5075
5078
5081
5084
5087
5090
5091
5093
5099
5105
5111
5117
5123
5129
5135
5141
5147
5148
5150
5153
5156
5159
5162
5165
5168
5171
5174
5177
5178
5180
5183
5186
5189
5192
5195
5198
5201
5204
5207
5208
5209
5210
5211
5214
5215
5220
5221
5222
5225
5226
5227
5230
5231
5232
5233
5234
5235
5236
5237
5238
5239
5240
5243
5244
5245
5246
5247
5248
5249
5250
5251
5252
5253
5254
5255
5261
5262
5263
5264
5265
5266
5267
5270
5271
5272
5273
5274
5275
5276
5277
5278
5279
5280
5281
5282
5283
5284
5285
5286
5287
5289
5292
5293
5294
5295
5296
5297
5298
5299
5300
5301
5302
5303
5304
5305
5306
5309
5310
5311
5312
5313
5314
5317
5318
5321
5322
5323
5324
5326
5327
5328
5329
5330
5331
5332
5333
5336
5337
5338
5339
5340
5341
5342
5343
5344
5345
5348
5349
5350
5351
5352
5353
5357
5358
5359
5360
5361
5364
5365
5366
5367
5369
5370
5371
5372
5373
5376
5377
5378
5379
5380
5381
5382
5383
5384
5385
5386
5387
5388
5389
5390
5391
5392
5393
5394
5395
5396
5397
5398
5399
5400
5401
5402
5403
5404
5405
5406
5407
5408
5409
5410
5411
5412
5413
5414
5415
5416
5417
5418
5419
5420
5421
5422
5423
5424
5425
5426
5427
5428
5429
5430
5431
5432
5433
5434
5435
5436
5437
5438
5439
5440
5441
5444
5445
5448
5449
5450
5451
5452
5453
5454
5458
5459
5460
5461
5462
5465
5466
5467
5468
5470
5471
5472
5473
5474
5477
5478
5479
5480
5481
5482
5483
5484
5485
5486
5487
5488
5489
5490
5491
5492
5493
5494
5495
5496
5497
5498
5499
5500
5501
5502
5503
5504
5505
5506
5507
5508
5509
5510
5511
5512
5513
5514
5515
5516
5517
5518
5519
5520
5521
5522
5523
5524
5527
5528
5531
5536
5537
5538
5541
5542
5543
5544
5545
5546
5547
5548
5549
5550
5551
5552
5553
5556
5557
5558
5559
5561
5562
5563
5564
5565
5566
5567
5568
5569
5570
5571
5572
5573
5574
5575
5576
5579
5580
5581
5582
5583
5584
5585
5586
5587
5588
5589
5590
5591
5592
5593
5594
5595
5596
5598
5601
5602
5603
5604
5605
5606
5607
5608
5609
5610
5611
5612
5613
5614
5615
5616
5617
5618
5619
5620
5621
5625
5626
5627
5630
5631
5632
5633
5634
5635
5637
5638
5639
5640
5641
5644
5645
5647
5648
5649
5650
5652
5653
5654
5655
5656
5657
5658
5659
5662
5663
5664
5665
5666
5667
5668
5669
5670
5671
5674
5675
5676
5677
5678
5679
5681
5682
5683
5684
5685
5686
5687
5688
5689
5690
5691
5692
5693
5694
5695
5696
5697
5698
5701
5702
5705
5706
5707
5708
5709
5710
5711
5715
5716
5717
5718
5719
5720
5721
5722
5723
5724
5725
5726
5727
5728
5729
5730
5731
5732
5733
5734
5736
5737
5740
5741
5742
5746
5747
5748
5749
5750
5751
5752
5753
5756
5757
5758
5760
5763
5766
5769
5772
5775
5778
5781
5784
5787
5788
5790
5796
5802
5808
5814
5820
5826
5832
5838
5844
5845
5847
5850
5853
5856
5859
5862
5865
5868
5871
5874
5875
5877
5880
5885
5888
5893
5896
5901
5904
5909
5912
5917
5920
5925
5928
5933
5936
5941
5944
5949
5950
5951
5952
5953
5956
5957
5958
5959
5960
5961
5962
5963
5964
5965
5966
5967
5968
5969
5970
5971
5972
5973
5974
5975
5976
5977
5978
5979
5980
5981
5982
5983
5984
5985
5986
5987
5988
5989
5990
5991
5992
5993
5994
5995
5996
5997
5998
5999
6000
6001
6002
6003
6004
6008
6009
6010
6013
6014
6015
6018
6019
6020
6021
6023
6024
6025
6026
6027
6030
6031
6032
6033
6035
6036
6037
6038
6039
6040
6041
6042
6043
6044
6045
6046
6047
6048
6049
6050
6051
6052
6053
6054
6055
6056
6057
6058
6059
6060
6061
6062
6063
6064
6065
6066
6067
6068
6069
6070
6071
6072
6073
6074
6075
6076
6077
6078
6079
6080
6084
6085
6086
6087
6088
6091
6092
6093
6094
6096
6097
6098
6099
6100
6103
6104
6105
6106
6107
6108
6109
6110
6111
6112
6113
6114
6115
6121
6122
6123
6124
6125
6126
6127
6128
6129
6130
6131
6132
6133
6134
6135
6136
6137
6138
6139
6140
6141
6142
6143
6144
6145
6146
6147
6148
6154
6155
6156
6157
6158
6159
6160
6161
6164
6165
6168
6171
6172
6173
6176
6177
6179
6180
6183
6184
6185
6188
6189
6190
6191
6194
6195
6198
6199
6202
6203
6206
6207
6208
6209
6210
6216
6217
6219
6220
6230
6231
6237
6241
6242
6243
6246
6247
6250
6254
6255
6256
6257
6258
6259
6260
6261
6264
6265
6266
6267
6268
6269
6270
6271
6272
6273
6275
6276
6277
6278
6279
6283
6284
6285
6288
6289
6290
6291
6292
6293
6295
6296
6297
6298
6299
6302
6303
6305
6306
6307
6308
6310
6311
6312
6313
6314
6315
6316
6317
6320
6321
6322
6323
6324
6325
6326
6327
6328
6329
6332
6333
6334
6335
6336
6337
6339
6340
6341
6342
6343
6344
6345
6346
6347
6348
6349
6350
6351
6352
6353
6354
6355
6356
6359
6360
6363
6364
6365
6366
6367
6368
6369
6373
6374
6375
6378
6379
6380
6383
6384
6385
6386
6388
6389
6390
6391
6392
6395
6396
6397
6398
6400
6401
6402
6403
6404
6405
6406
6407
6408
6409
6410
6411
6412
6413
6414
6415
6416
6417
6418
6419
6420
6421
6422
6423
6424
6425
6426
6427
6428
6429
6430
6431
6432
6433
6434
6435
6436
6437
6438
6439
6440
6441
6442
6443
6444
6445
6449
6450
6451
6454
6455
6456
6459
6460
6461
6462
6464
6465
6466
6467
6468
6471
6472
6473
6474
6476
6477
6478
6479
6480
6481
6482
6483
6484
6485
6486
6487
6488
6489
6490
6491
6492
6493
6494
6495
6496
6498
6499
6500
6501
6502
6505
6506
6507
6508
6509
6510
6511
6512
6513
6514
6515
6516
6517
6518
6519
6520
6521
6522
6523
6524
6525
6529
6530
6531
6532
6533
6534
6535
6536
6540
6541
6542
6544
6547
6550
6553
6556
6559
6562
6565
6568
6571
6572
6574
6580
6586
6592
6598
6604
6610
6616
6622
6628
6629
6631
6634
6637
6640
6643
6646
6649
6652
6655
6658
6659
6661
6664
6669
6672
6677
6680
6685
6688
6693
6696
6701
6704
6709
6712
6717
6720
6725
6728
6733
6734
6735
6736
6737
6740
6741
6742
6743
6744
6745
6746
6747
6748
6749
6750
6751
6752
6753
6754
6755
6756
6757
6758
6759
6760
6761
6762
6763
6764
6765
6766
6767
6768
6769
6770
6771
6772
6773
6774
6775
6776
6777
6778
6779
6780
6781
6782
6783
6784
6785
6786
6787
6788
6792
6793
6794
6795
6796
6799
6800
6801
6802
6805
6806
6807
6809
6812
6815
6818
6821
6824
6827
6830
6833
6836
6837
6840
6841
6842
6843
6845
6851
6857
6863
6869
6875
6881
6887
6893
6899
6900
6902
6905
6908
6911
6914
6917
6920
6923
6926
6929
6930
6932
6935
6940
6943
6946
6949
6952
6955
6958
6961
6964
6965
6966
6967
6968
6971
6972
6973
6974
6975
6976
6977
6978
6979
6980
6981
6982
6983
6989
6990
6991
6992
6993
6994
6995
6996
6997
6998
6999
7000
7001
7002
7003
7004
7005
7006
7007
7008
7009
7010
7011
7012
7013
7014
7015
7016
7017
7018
7019
7020
7021
7022
7023
7024
7025
7029
7030
7031
7032
7033
7034
7035
7036
7037
7038
7039
7040
7042
7043
7044
7045
7046
7047
7049
7050
7051
7052
7053
7057
7058
7059
7062
7063
7064
7065
7066
7067
7068
7069
7070
7071
7072
7073
7074
7075
7076
7078
7079
7080
7081
7082
7086
7087
7088
7089
7090
7093
7094
7095
7096
7098
7099
7100
7101
7102
7105
7106
7107
7108
7109
7110
7111
7112
7113
7114
7115
7116
7117
7118
7119
7120
7121
7122
7123
7124
7125
7126
7127
7128
7129
7130
7131
7132
7133
7134
7135
7136
7137
7138
7139
7140
7141
7142
7143
7144
7145
7146
7147
7148
7149
7150
7151
7152
7153
7156
7157
7158
7164
7170
7174
7175
7176
7179
7180
7184
7185
7186
7187
7188
7189
7193
7194
7195
7196
7197
7201
7202
7203
7206
7207
7209
7210
7213
7214
7219
7221
7224
7230
7233
7239
7240
7241
7242
7248
7252
7256
7257
7258
7259
7260
7263
7264
7265
7266
7268
7269
7270
7271
7272
7275
7276
7277
7278
7279
7280
7281
7282
7283
7284
7285
7286
7287
7288
7289
7290
7291
7292
7293
7296
7297
7298
7299
7300
7301
7302
7303
7304
7305
7306
7307
7308
7309
7310
7311
7312
7313
7314
7315
7316
7317
7318
7319
7320
7321
7322
7323
7324
7325
7326
7331
7332
7333
7339
7340
7343
7344
7350
7351
7354
7355
7358
7359
7365
7366
7369
7370
7376
7380
7381
7384
7385
7391
7395
7399
7400
7401
7403
7404
7410
7411
7415
7416
7422
7423
7429
7435
7439
7440
7441
7447
7453
7457
7458
7459
7462
7463
7466
7467
7470
7471
7477
7478
7481
7482
7484
7485
7489
7490
7491
7492
7493
7494
7495
7496
7497
7498
7499
7500
7503
7504
7507
7508
7509
7510
7511
7512
7513
7514
7515
7516
7517
7518
7519
7520
7521
7522
7523
7524
7525
7526
7527
7528
7529
7530
7531
7532
7533
7534
7538
7539
7540
7541
7542
7543
7544
7545
7546
7547
7548
7549
7550
7551
7552
7553
7554
7555
7556
7557
7560
7561
7567
7568
7574
7575
7581
7585
7589
7590
7591
7594
7595
7597
7598
7601
7602
7605
7606
7610
7611
7612
7613
7614
7615
7616
7617
7618
7619
7620
7621
7622
7625
7626
7627
7628
7629
7630
7631
7632
7633
7634
7635
7636
7637
7638
7639
7640
7641
7642
7643
7644
7645
7646
7647
7648
7649
7650
7651
7652
7653
7654
7655
7656
7657
7658
7659
7660
7661
7662
7663
7664
7665
7666
7667
7668
7669
7670
7671
7674
7675
7678
7679
7682
7683
7686
7687
7691
7692
7695
7696
7698
7699
7705
7706
7709
7710
7712
7713
7717
7718
7719
7720
7721
7722
7723
7724
7725
7726
7727
7728
7729
7732
7733
7734
7735
7736
7737
7738
7739
7740
7741
7742
7743
7744
7745
7746
7747
7748
7749
7750
7751
7752
7753
7754
7755
7756
7757
7758
7759
7763
7764
7765
7766
7767
7768
7769
7770
7771
7772
7773
7774
7775
7776
7777
7778
7779
7780
7781
7782
7788
7789
7795
7796
7799
7800
7806
7810
7814
7815
7816
7819
7820
7826
7830
7831
7833
7834
7838
7839
7840
7841
7842
7843
7844
7845
7846
7847
7848
7849
7850
7853
7854
7855
7856
7857
7858
7859
7860
7861
7862
7863
7864
7865
7866
7867
7868
7869
7870
7871
7872
7873
7874
7875
7876
7877
7878
7879
7880
7884
7885
7886
7887
7888
7889
7890
7891
7892
7893
7894
7895
7896
7897
7898
7899
7900
7901
7902
7903
7906
7907
7913
7914
7917
7921
7922
7923
7924
7925
7926
7927
7928
7930
7931
7932
7933
7934
7937
7938
7940
7941
7942
7943
7945
7946
7947
7948
7949
7950
7951
7952
7955
7956
7957
7958
7959
7960
7961
7962
7963
7964
7967
7968
7969
7970
7971
7972
7974
7975
7976
7977
7978
7981
7982
7983
7984
7985
7986
7987
7988
7989
7990
7991
7992
7993
7994
7997
7998
8001
8002
8003
8004
8005
8006
8009
8010
8013
8017
8018
8019
8020
8021
8022
8023
8024
8027
8028
8029
8031
8034
8037
8040
8043
8046
8049
8052
8055
8058
8059
8061
8067
8073
8079
8085
8091
8097
8103
8109
8115
8116
8118
8121
8124
8127
8130
8133
8136
8139
8142
8145
8146
8148
8151
8156
8159
8164
8167
8172
8175
8180
8183
8188
8191
8196
8199
8204
8207
8212
8215
8220
8221
8222
8223
8224
8227
8228
8229
8230
8231
8232
8233
8234
8235
8236
8237
8238
8239
8240
8241
8242
8243
8244
8245
8246
8247
8248
8249
8250
8251
8252
8253
8254
8255
8256
8257
8258
8259
8260
8261
8262
8263
8264
8265
8266
8267
8268
8269
8270
8271
8272
8273
8274
8275
8279
8280
8281
8284
8285
8286
8287
8288
8289
8291
8292
8293
8294
8295
8298
8299
8301
8302
8303
8304
8306
8307
8308
8309
8310
8311
8312
8313
8316
8317
8318
8319
8320
8321
8322
8323
8324
8325
8328
8329
8330
8331
8332
8333
8335
8336
8337
8338
8339
8340
8341
8342
8343
8344
8345
8346
8347
8348
8349
8350
8351
8352
8355
8356
8359
8360
8361
8362
8363
8364
8365
8369
8370
8371
8372
8373
8376
8377
8378
8379
8381
8382
8383
8384
8385
8388
8389
8390
8391
8393
8394
8395
8396
8397
8398
8399
8400
8401
8402
8403
8404
8405
8406
8407
8408
8409
8410
8411
8412
8413
8414
8415
8416
8417
8418
8419
8420
8421
8422
8423
8424
8425
8426
8427
8428
8429
8430
8431
8432
8433
8434
8435
8436
8437
8438
8442
8443
8444
8445
8446
8447
8448
8449
8452
8453
8454
8455
8456
8458
8459
8460
8461
8462
8463
8465
8466
8467
8468
8469
8472
8473
8474
8477
8478
8487
8488
8491
8492
8493
8496
8497
8499
8500
8502
8503
8506
8507
8510
8511
8514
8515
8518
8519
8520
8521
8522
8524
8525
8527
8528
8538
8539
8545
8546
8548
8549
8551
8552
8554
8555
8558
8559
8561
8562
8564
8565
8568
8569
8571
8572
8574
8575
8578
8579
8582
8583
8586
8587
8590
8591
8592
8595
8596
8598
8599
8601
8602
8605
8606
8609
8610
8613
8614
8617
8618
8619
8620
8621
8623
8624
8626
8627
8629
8630
8636
8637
8638
8639
8642
8645
8648
8651
8652
8655
8656
8658
8659
8662
8663
8664
8667
8668
8670
8671
8673
8674
8677
8678
8681
8682
8685
8686
8689
8690
8691
8692
8693
8699
8700
8702
8703
8713
8714
8715
8716
8722
8723
8724
8725
8727
8728
8730
8731
8734
8735
8738
8739
8742
8745
8748
8751
8752
8755
8759
8760
8761
8762
8763
8766
8767
8768
8769
8771
8772
8773
8774
8775
8778
8779
8780
8781
8782
8783
8784
8785
8786
8787
8788
8789
8790
8791
8792
8793
8794
8795
8796
8797
8798
8799
8800
8801
8802
8803
8804
8805
8806
8807
8808
8809
8810
8811
8812
8813
8814
8815
8816
8817
8823
8824
8825
8826
8827
8828
8829
8830
8831
8835
8836
8837
8840
8841
8842
8843
8844
8845
8847
8848
8849
8850
8851
8854
8855
8857
8858
8859
8860
8862
8863
8864
8865
8866
8867
8868
8869
8872
8873
8874
8875
8876
8877
8878
8879
8880
8881
8884
8885
8886
8887
8888
8889
8891
8892
8893
8894
8895
8896
8897
8898
8899
8900
8901
8902
8903
8904
8905
8906
8907
8908
8911
8912
8915
8916
8917
8918
8919
8920
8921
8925
8926
8927
8928
8929
8930
8931
8932
8934
8935
8936
8937
8938
8941
8942
8943
8944
8945
8946
8947
8948
8949
8950
8951
8952
8953
8954
8960
8961
8962
8963
8964
8965
8966
8967
8968
8969
8970
8971
8972
8973
8974
8975
8976
8977
8978
8979
8980
8981
8982
8983
8984
8985
8986
8987
8988
8989
8990
8991
8992
8993
8994
8995
8996
9000
9001
9002
9003
9004
9007
9008
9009
9010
9012
9013
9014
9015
9016
9019
9020
9021
9022
9023
9024
9025
9026
9027
9028
9029
9030
9031
9032
9033
9034
9035
9036
9037
9040
9041
9042
9043
9044
9045
9046
9047
9048
9049
9050
9051
9052
9053
9054
9055
9056
9057
9058
9059
9060
9061
9067
9068
9069
9070
9071
9072
9073
9074
9075
9079
9080
9081
9082
9083
9084
9085
9086
9089
9090
9091
9093
9096
9099
9102
9105
9108
9111
9114
9117
9120
9121
9123
9129
9135
9141
9147
9153
9159
9165
9171
9177
9178
9180
9183
9186
9189
9192
9195
9198
9201
9204
9207
9208
9210
9213
9218
9221
9226
9229
9234
9237
9242
9245
9250
9253
9258
9261
9266
9269
9274
9277
9282
9283
9284
9285
9286
9289
9290
9291
9292
9293
9294
9295
9296
9297
9298
9299
9300
9301
9302
9303
9304
9305
9306
9307
9308
9309
9310
9311
9312
9313
9314
9315
9316
9317
9318
9319
9320
9321
9322
9323
9324
9325
9326
9327
9328
9329
9330
9331
9332
9333
9334
9335
9336
9337
9341
9342
9343
9346
9347
9348
9349
9350
9351
9353
9354
9355
9356
9357
9360
9361
9362
9363
9364
9365
9366
9367
9368
9369
9370
9371
9372
9378
9379
9380
9381
9382
9383
9384
9385
9386
9387
9388
9389
9390
9391
9392
9393
9394
9395
9396
9397
9398
9399
9401
9404
9405
9406
9407
9408
9409
9410
9411
9412
9413
9414
9415
9416
9417
9418
9419
9423
9424
9425
9426
9427
9428
9429
9430
9431
9432
9433
9436
9437
9438
9439
9440
9441
9442
9443
9444
9445
9447
9448
9449
9450
9454
9455
9456
9457
9458
9459
9460
9461
9464
9465
9468
9469
9470
9471
9472
9473
9474
9475
9476
9478
9479
9480
9481
9482
9486
9487
9488
9491
9492
9493
9496
9497
9498
9499
9501
9502
9503
9504
9505
9508
9509
9510
9511
9512
9513
9514
9515
9516
9517
9518
9519
9520
9521
9522
9523
9524
9525
9526
9529
9530
9531
9532
9533
9534
9535
9536
9537
9538
9539
9540
9541
9542
9543
9544
9545
9546
9547
9548
9549
9550
9551
9552
9553
9554
9555
9556
9557
9558
9561
9562
9565
9569
9570
9571
9572
9573
9576
9577
9578
9579
9581
9582
9583
9584
9585
9588
9589
9590
9591
9592
9593
9594
9595
9596
9597
9598
9599
9600
9606
9607
9608
9609
9610
9611
9612
9613
9614
9615
9616
9617
9618
9619
9620
9621
9622
9623
9624
9625
9626
9627
9628
9629
9630
9631
9632
9633
9634
9635
9636
9637
9638
9639
9640
9641
9642
9646
9647
9648
9649
9650
9653
9654
9655
9656
9658
9659
9660
9661
9664
9665
9668
9669
9670
9671
9673
9674
9675
9676
9677
9678
9679
9680
9681
9682
9688
9689
9690
9691
9692
9693
9694
9695
9696
9697
9698
9699
9700
9701
9702
9703
9704
9705
9706
9707
9708
9709
9710
9711
9712
9713
9714
9715
9716
9717
9718
9719
9720
9721
9722
9723
9726
9727
9730
9734
9735
9736
9737
9738
9744
9745
9746
9747
9748
9751
9752
9753
9754
9756
9757
9758
9759
9760
9761
9763
9764
9765
9766
9767
9771
9772
9773
9776
9777
9778
9779
9780
9781
9783
9784
9785
9786
9787
9790
9791
9793
9794
9795
9796
9798
9799
9800
9801
9802
9803
9804
9805
9808
9809
9810
9811
9812
9813
9814
9815
9816
9817
9820
9821
9822
9823
9824
9825
9827
9828
9829
9830
9831
9832
9833
9834
9835
9836
9837
9838
9839
9840
9841
9842
9843
9844
9847
9848
9851
9852
9853
9854
9855
9856
9857
9861
9862
9863
9864
9865
9866
9867
9868
9869
9870
9871
9872
9875
9876
9877
9878
9879
9880
9881
9882
9883
9885
9886
9887
9888
9892
9893
9894
9895
9901
9902
9903
9904
9905
9908
9909
9910
9911
9912
9913
9914
9915
9916
9917
9919
9920
9921
9922
9923
9927
9928
9929
9930
9931
9937
9938
9939
9940
9943
9944
9945
9946
9947
9949
9950
9951
9952
9953
9954
9956
9957
9958
9959
9960
9965
9966
9967
9973
9974
9977
9978
9984
9985
9988
9989
9992
9993
9999
10000
10003
10004
10006
10007
10010
10011
10017
10021
10025
10026
10027
10029
10030
10036
10037
10041
10042
10048
10049
10055
10061
10065
10066
10067
10073
10079
10083
10084
10085
10088
10089
10092
10093
10096
10097
10103
10104
10107
10108
10110
10111
10115
10116
10117
10118
10119
10120
10121
10122
10123
10124
10125
10126
10129
10130
10133
10134
10135
10136
10137
10138
10139
10140
10141
10142
10143
10144
10145
10146
10147
10148
10149
10150
10151
10152
10153
10154
10155
10156
10157
10158
10159
10160
10164
10165
10166
10167
10168
10169
10170
10171
10172
10173
10174
10175
10176
10177
10178
10179
10180
10181
10182
10183
10186
10187
10193
10194
10200
10201
10207
10211
10215
10216
10217
10220
10221
10223
10224
10227
10228
10231
10232
10236
10237
10238
10239
10240
10241
10242
10243
10244
10245
10246
10247
10248
10251
10252
10253
10254
10255
10256
10257
10258
10259
10260
10261
10262
10263
10264
10265
10266
10267
10268
10269
10270
10271
10272
10273
10274
10275
10276
10277
10278
10279
10280
10281
10282
10283
10284
10285
10286
10287
10288
10289
10290
10291
10292
10293
10294
10295
10296
10297
10300
10301
10304
10305
10308
10309
10312
10313
10317
10318
10321
10322
10324
10325
10331
10332
10335
10336
10338
10339
10343
10344
10345
10346
10347
10348
10349
10350
10351
10352
10353
10354
10355
10358
10359
10360
10361
10362
10363
10364
10365
10366
10367
10368
10369
10370
10371
10372
10373
10374
10375
10376
10377
10378
10379
10380
10381
10382
10383
10384
10385
10389
10390
10391
10392
10393
10394
10395
10396
10397
10398
10399
10400
10401
10402
10403
10404
10405
10406
10407
10408
10414
10415
10421
10422
10425
10426
10432
10436
10438
10439
10442
10443
10445
10446
10448
10449
10453
10454
10455
10456
10457
10458
10459
10460
10461
10462
10463
10464
10465
10468
10469
10470
10471
10472
10473
10474
10475
10476
10477
10478
10479
10480
10481
10482
10483
10484
10485
10486
10487
10488
10489
10490
10491
10492
10493
10494
10495
10499
10500
10501
10502
10503
10504
10505
10506
10507
10508
10509
10510
10511
10512
10513
10514
10515
10516
10517
10518
10521
10522
10528
10529
10532
10536
10537
10538
10541
10542
10543
10544
10545
10546
10547
10548
10549
10550
10551
10552
10553
10554
10555
10557
10558
10559
10560
10561
10566
10567
10568
10574
10575
10578
10579
10585
10586
10589
10590
10593
10594
10600
10601
10604
10605
10607
10608
10611
10612
10618
10622
10626
10627
10628
10630
10631
10637
10638
10642
10643
10649
10650
10656
10662
10666
10667
10668
10674
10680
10684
10685
10686
10689
10690
10693
10694
10697
10698
10704
10705
10708
10709
10711
10712
10716
10717
10718
10719
10720
10721
10722
10723
10724
10725
10726
10727
10730
10731
10734
10735
10736
10737
10738
10739
10740
10741
10742
10743
10744
10745
10746
10747
10748
10749
10750
10751
10752
10753
10754
10755
10756
10757
10758
10759
10760
10761
10765
10766
10767
10768
10769
10770
10771
10772
10773
10774
10775
10776
10777
10778
10779
10780
10781
10782
10783
10784
10787
10788
10794
10795
10801
10802
10808
10812
10816
10817
10818
10821
10822
10824
10825
10828
10829
10832
10833
10837
10838
10839
10840
10841
10842
10843
10844
10845
10846
10847
10848
10849
10852
10853
10854
10855
10856
10857
10858
10859
10860
10861
10862
10863
10864
10865
10866
10867
10868
10869
10870
10871
10872
10873
10874
10875
10876
10877
10878
10879
10880
10881
10882
10883
10884
10885
10886
10887
10888
10889
10890
10891
10892
10893
10894
10895
10896
10897
10898
10901
10902
10905
10906
10909
10910
10913
10914
10918
10919
10922
10923
10925
10926
10932
10933
10936
10937
10939
10940
10944
10945
10946
10947
10948
10949
10950
10951
10952
10953
10954
10955
10956
10959
10960
10961
10962
10963
10964
10965
10966
10967
10968
10969
10970
10971
10972
10973
10974
10975
10976
10977
10978
10979
10980
10981
10982
10983
10984
10985
10986
10990
10991
10992
10993
10994
10995
10996
10997
10998
10999
11000
11001
11002
11003
11004
11005
11006
11007
11008
11009
11015
11016
11022
11023
11026
11027
11033
11037
11039
11040
11043
11044
11046
11047
11049
11050
11054
11055
11056
11057
11058
11059
11060
11061
11062
11063
11064
11065
11066
11069
11070
11071
11072
11073
11074
11075
11076
11077
11078
11079
11080
11081
11082
11083
11084
11085
11086
11087
11088
11089
11090
11091
11092
11093
11094
11095
11096
11100
11101
11102
11103
11104
11105
11106
11107
11108
11109
11110
11111
11112
11113
11114
11115
11116
11117
11118
11119
11122
11123
11129
11130
11133
11137
11138
11139
11140
11141
11144
11145
11146
11147
11149
11150
11151
11152
11155
11156
11159
11160
11161
11162
11163
11164
11165
11166
11167
11168
11169
11170
11171
11172
11173
11174
11175
11176
11177
11178
11179
11180
11181
11182
11183
11184
11185
11186
11187
11188
11189
11190
11191
11192
11193
11194
11195
11196
11197
11198
11204
11205
11206
11207
11208
11209
11210
11211
11212
11216
11217
11218
11221
11222
11223
11226
11227
11228
11229
11231
11232
11233
11234
11235
11238
11239
11240
11241
11243
11244
11245
11246
11247
11248
11249
11250
11251
11252
11253
11254
11255
11256
11257
11258
11259
11260
11261
11262
11263
11264
11265
11266
11267
11268
11269
11270
11271
11272
11273
11274
11275
11276
11277
11278
11279
11280
11281
11282
11283
11284
11285
11286
11287
11288
11290
11294
11295
11296
11299
11300
11301
11304
11305
11306
11307
11310
11311
11312
11314
11317
11320
11323
11326
11329
11332
11335
11338
11341
11342
11344
11345
11347
11353
11359
11365
11371
11377
11383
11389
11395
11401
11402
11404
11407
11410
11413
11416
11419
11422
11425
11428
11431
11432
11434
11437
11442
11445
11448
11451
11454
11457
11460
11463
11466
11467
11468
11469
11470
11473
11474
11475
11476
11477
11478
11479
11480
11481
11482
11483
11484
11485
11491
11492
11493
11494
11495
11496
11497
11500
11501
11502
11503
11504
11505
11506
11507
11508
11509
11510
11511
11512
11513
11514
11515
11516
11517
11518
11519
11520
11521
11522
11523
11524
11525
11526
11527
11528
11529
11530
11534
11535
11536
11537
11538
11541
11542
11543
11544
11546
11547
11548
11549
11550
11553
11554
11555
11556
11557
11558
11559
11560
11561
11562
11563
11564
11565
11566
11567
11568
11569
11570
11571
11572
11573
11574
11575
11576
11577
11578
11579
11580
11581
11582
11583
11584
11585
11586
11587
11588
11589
11590
11591
11592
11593
11594
11595
11596
11597
11598
11599
11600
11601
11605
11606
11610
11611
11612
11614
11615
11618
11619
11623
11627
11628
11629
11630
11631
11632
11633
11634
11635
11636
11637
11639
11643
11644
11645
11646
11647
11648
11649
11650
11653
11654
11655
11657
11660
11663
11666
11669
11672
11675
11678
11681
11684
11685
11687
11693
11699
11705
11711
11717
11723
11729
11735
11741
11742
11744
11747
11750
11753
11756
11759
11762
11765
11768
11771
11772
11774
11777
11782
11785
11790
11793
11798
11801
11806
11809
11814
11817
11822
11825
11830
11833
11838
11841
11846
11847
11848
11849
11850
11853
11854
11855
11856
11857
11858
11859
11860
11861
11862
11863
11864
11865
11866
11867
11868
11869
11870
11871
11872
11873
11874
11875
11876
11877
11878
11879
11880
11881
11882
11883
11884
11885
11886
11887
11888
11889
11890
11891
11892
11893
11894
11895
11896
11897
11898
11899
11900
11901
11905
11906
11907
11910
11911
11912
11913
11914
11915
11924
11925
11926
11927
11933
11937
11941
11942
11943
11944
11945
11947
11948
11949
11954
11955
11956
11958
11962
11963
11964
11967
11968
11969
11972
11973
11974
11975
11977
11978
11979
11980
11981
11984
11985
11986
11987
11988
11989
11990
11991
11992
11993
11994
11995
11996
12002
12003
12004
12005
12006
12007
12008
12009
12010
12011
12012
12013
12014
12015
12016
12017
12018
12019
12020
12021
12022
12023
12024
12025
12026
12027
12028
12029
12030
12031
12032
12033
12034
12035
12036
12037
12038
12042
12043
12044
12045
12046
12049
12050
12051
12052
12054
12055
12056
12057
12058
12061
12062
12063
12064
12065
12066
12067
12068
12069
12070
12071
12072
12073
12079
12080
12081
12082
12083
12084
12085
12086
12087
12088
12089
12090
12091
12092
12093
12094
12095
12096
12097
12098
12099
12100
12101
12102
12103
12104
12105
12106
12107
12108
12109
12110
12111
12112
12113
12114
12115
12119
12120
12121
12122
12123
12124
12125
12126
12127
12130
12131
12132
12133
12134
12135
12136
12137
12138
12140
12141
12142
12143
12144
12148
12149
12150
12153
12154
12155
12158
12159
12160
12161
12163
12164
12165
12166
12167
12170
12171
12172
12173
12174
12175
12176
12177
12178
12179
12180
12181
12182
12183
12184
12185
12186
12187
12188
12189
12190
12191
12192
12193
12194
12195
12196
12197
12198
12201
12202
12203
12204
12205
12206
12207
12208
12209
12210
12211
12212
12213
12214
12215
12216
12217
12218
12219
12220
12221
12224
12229
12230
12231
12237
12238
12241
12242
12248
12249
12252
12253
12256
12257
12263
12264
12267
12268
12270
12271
12274
12275
12281
12285
12289
12290
12291
12293
12294
12300
12301
12305
12306
12312
12313
12319
12325
12329
12330
12331
12337
12343
12347
12348
12349
12352
12353
12356
12357
12360
12361
12367
12368
12371
12372
12374
12375
12379
12380
12381
12382
12383
12384
12385
12386
12387
12388
12389
12390
12393
12394
12397
12398
12399
12400
12401
12402
12403
12404
12405
12406
12407
12408
12409
12410
12411
12412
12413
12414
12415
12416
12417
12418
12419
12420
12421
12422
12423
12424
12428
12429
12430
12431
12432
12433
12434
12435
12436
12437
12438
12439
12440
12441
12442
12443
12444
12445
12446
12447
12450
12451
12457
12458
12464
12465
12471
12475
12479
12480
12481
12484
12485
12487
12488
12491
12492
12495
12496
12500
12501
12502
12503
12504
12505
12506
12507
12508
12509
12510
12511
12512
12515
12516
12517
12518
12519
12520
12521
12522
12523
12524
12525
12526
12527
12528
12529
12530
12531
12532
12533
12534
12535
12536
12537
12538
12539
12540
12541
12542
12543
12544
12545
12546
12547
12548
12549
12550
12551
12552
12553
12554
12555
12556
12557
12558
12559
12560
12561
12564
12565
12568
12569
12572
12573
12576
12577
12581
12582
12585
12586
12588
12589
12595
12596
12599
12600
12602
12603
12607
12608
12609
12610
12611
12612
12613
12614
12615
12616
12617
12618
12619
12622
12623
12624
12625
12626
12627
12628
12629
12630
12631
12632
12633
12634
12635
12636
12637
12638
12639
12640
12641
12642
12643
12644
12645
12646
12647
12648
12649
12653
12654
12655
12656
12657
12658
12659
12660
12661
12662
12663
12664
12665
12666
12667
12668
12669
12670
12671
12672
12678
12679
12685
12686
12689
12690
12696
12700
12702
12703
12706
12707
12709
12710
12712
12713
12717
12718
12719
12720
12721
12722
12723
12724
12725
12726
12727
12728
12729
12732
12733
12734
12735
12736
12737
12738
12739
12740
12741
12742
12743
12744
12745
12746
12747
12748
12749
12750
12751
12752
12753
12754
12755
12756
12757
12758
12759
12763
12764
12765
12766
12767
12768
12769
12770
12771
12772
12773
12774
12775
12776
12777
12778
12779
12780
12781
12782
12785
12786
12792
12793
12796
12800
12801
12802
12805
12806
12807
12808
12809
12810
12812
12813
12814
12815
12816
12819
12820
12822
12823
12824
12825
12827
12828
12829
12830
12831
12832
12833
12834
12837
12838
12839
12840
12841
12842
12843
12844
12845
12846
12847
12848
12849
12850
12851
12853
12854
12855
12856
12857
12858
12859
12860
12861
12862
12863
12864
12865
12866
12867
12868
12869
12870
12873
12874
12877
12878
12879
12880
12881
12882
12883
12887
12888
12889
12890
12891
12892
12893
12894
12895
12898
12899
12900
12902
12903
12904
12905
12906
12907
12908
12910
12911
12912
12913
12914
12918
12919
12920
12923
12924
12925
12928
12929
12930
12931
12933
12934
12935
12936
12937
12940
12941
12942
12943
12944
12945
12946
12947
12948
12949
12950
12951
12952
12958
12959
12960
12961
12962
12963
12964
12967
12968
12969
12970
12971
12972
12973
12974
12975
12976
12977
12978
12979
12980
12981
12982
12983
12984
12985
12986
12987
12988
12989
12990
12991
12992
12993
12994
12995
12996
12997
12999
13003
13004
13005
13008
13009
13010
13011
13020
13021
13027
13031
13035
13036
13037
13038
13039
13045
13046
13048
13053
13054
13055
13056
13057
13063
13068
13069
13070
13071
13072
13078
13083
13084
13085
13086
13087
13094
13099
13100
13101
13102
13103
13109
13114
13115
13116
13117
13118
13124
13128
13129
13130
13131
13132
13133
13134
13135
13138
13139
13140
13141
13142
13143
13144
13145
13146
13147
13149
13150
13151
13152
13153
13156
13157
13158
13159
13160
13161
13162
13163
13164
13165
13166
13167
13168
13169
13170
13171
13172
13173
13174
13175
13176
13177
13178
13179
13180
13181
13182
13183
13184
13185
13186
13187
13188
13189
13190
13191
13192
13193
13194
13195
13196
13197
13198
13199
13200
13201
13202
13203
13204
13205
13206
13207
13208
13209
13210
13211
13212
13213
13214
13215
13216
13218
13222
13223
13224
13225
13226
13227
13228
13229
13230
13231
13232
13233
13234
13237
13238
13239
13240
13241
13242
13243
13244
13245
13246
13247
13248
13249
13250
13251
13252
13253
13254
13255
13256
13257
13258
13259
13260
13261
13262
13263
13264
13268
13269
13270
13271
13272
13273
13274
13275
13276
13277
13278
13279
13280
13281
13282
13283
13284
13285
13286
13288
13290
13294
13295
13296
13297
13298
13299
13300
13301
13302
13303
13304
13305
13306
13309
13310
13311
13312
13313
13314
13315
13316
13317
13318
13319
13320
13321
13322
13323
13324
13325
13326
13327
13328
13329
13330
13331
13332
13333
13334
13335
13336
13337
13338
13339
13340
13341
13342
13343
13344
13345
13346
13347
13348
13349
13350
13351
13352
13353
13354
13358
13359
13360
13361
13362
13363
13364
13365
13366
13367
13368
13369
13370
13371
13372
13373
13374
13375
13376
13377
13378
13379
13380
13381
13382
13383
13384
13385
13386
13387
13388
13389
13390
13391
13392
13393
13394
13395
13396
13397
13398
13399
13400
13401
13402
13403
13404
13405
13406
13407
13408
13409
13410
13411
13412
13413
13414
13415
13417
13419
13423
13424
13425
13426
13427
13428
13429
13430
13431
13432
13433
13434
13435
13438
13439
13440
13441
13442
13443
13444
13445
13446
13447
13448
13449
13450
13451
13452
13453
13454
13455
13456
13457
13458
13459
13460
13461
13462
13463
13464
13465
13469
13470
13471
13472
13473
13474
13475
13476
13477
13478
13479
13480
13481
13482
13483
13484
13485
13486
13487
13489
13491
13495
13496
13497
13498
13499
13500
13501
13502
13503
13504
13505
13506
13509
13510
13513
13514
13515
13516
13517
13518
13519
13520
13521
13522
13523
13524
13525
13526
13527
13528
13529
13530
13531
13532
13533
13534
13535
13536
13537
13538
13539
13540
13544
13545
13546
13547
13548
13549
13550
13551
13552
13553
13554
13555
13556
13557
13558
13559
13560
13561
13562
13566
13567
13568
13569
13570
13571
13572
13573
13574
13575
13576
13577
13578
13579
13580
13581
13582
13583
13584
13585
13586
13587
13588
13589
13590
13591
13592
13593
13594
13595
13596
13597
13598
13599
13600
13601
13602
13603
13604
13605
13606
13607
13608
13609
13610
13611
13612
13613
13614
13615
13616
13617
13618
13619
13620
13621
13622
13623
13624
13625
13626
13627
13628
13632
13633
13634
13635
13636
13637
13638
13639
13640
13641
13642
13643
13644
13645
13646
13647
13648
13649
13650
13651
13652
13653
13654
13655
13656
13657
13658
13659
13660
13661
13662
13663
13664
13665
13666
13667
13668
13669
13670
13671
13672
13673
13674
13675
13676
13677
13678
13679
13680
13681
13682
13683
13684
13685
13686
13687
13688
13689
13691
13695
13696
13697
13698
13699
13700
13701
13702
13703
13704
13705
13706
13707
13710
13711
13712
13713
13714
13715
13716
13717
13718
13719
13720
13721
13722
13723
13724
13725
13726
13727
13728
13729
13730
13731
13732
13733
13734
13735
13736
13737
13738
13739
13740
13741
13742
13743
13744
13745
13746
13747
13748
13749
13750
13751
13752
13753
13754
13755
13759
13760
13761
13762
13763
13764
13765
13766
13767
13768
13769
13770
13771
13772
13773
13774
13775
13776
13777
13778
13779
13780
13781
13782
13783
13784
13785
13786
13787
13788
13789
13790
13791
13792
13793
13794
13795
13796
13797
13798
13799
13800
13801
13802
13803
13804
13805
13806
13807
13808
13809
13810
13811
13812
13813
13814
13815
13816
13817
13818
13819
13820
13821
13823
13825
13829
13830
13831
13832
13833
13834
13835
13836
13839
13840
13841
13843
13846
13849
13852
13855
13858
13861
13864
13867
13870
13871
13873
13879
13885
13891
13897
13903
13909
13915
13921
13927
13928
13930
13933
13936
13939
13942
13945
13948
13951
13954
13957
13958
13960
13963
13968
13971
13976
13979
13984
13987
13992
13995
14000
14003
14008
14011
14016
14019
14024
14027
14032
14033
14034
14035
14036
14039
14040
14041
14042
14043
14044
14045
14046
14047
14048
14049
14050
14051
14052
14053
14054
14055
14056
14057
14058
14059
14060
14061
14062
14063
14064
14065
14066
14067
14068
14069
14070
14071
14072
14073
14074
14075
14076
14077
14078
14079
14080
14081
14082
14083
14084
14085
14086
14087
14089
14093
14094
14095
14096
14097
14100
14101
14102
14103
14105
14106
14107
14108
14109
14112
14113
14114
14115
14117
14118
14119
14120
14121
14122
14123
14124
14125
14126
14127
14128
14129
14130
14131
14132
14133
14134
14135
14136
14137
14138
14139
14140
14141
14142
14143
14144
14145
14146
14147
14148
14149
14150
14151
14152
14153
14154
14155
14156
14157
14158
14159
14160
14161
14162
14167
14168
14169
14170
14171
14172
14173
14174
14175
14176
14177
14178
14179
14180
14181
14184
14185
14186
14187
14188
14189
14190
14191
14192
14193
14194
14195
14196
14202
14203
14204
14205
14206
14207
14208
14211
14212
14213
14214
14215
14216
14217
14218
14219
14220
14221
14224
14225
14226
14227
14228
14229
14230
14231
14233
14236
14237
14238
14239
14240
14241
14242
14243
14244
14245
14246
14247
14248
14249
14250
14253
14254
14255
14256
14257
14258
14261
14262
14265
14269
14270
14271
14272
14273
14274
14275
14276
14277
14278
14279
14280
14282
14283
14284
14285
14286
14287
14289
14290
14291
14292
14293
14297
14298
14299
14300
14301
14302
14303
14304
14305
14308
14309
14310
14311
14312
14313
14314
14315
14316
14318
14319
14320
14321
14322
14327
14328
14329
14335
14336
14339
14340
14346
14347
14350
14351
14354
14355
14361
14362
14365
14366
14368
14369
14372
14373
14379
14383
14387
14388
14389
14391
14392
14398
14399
14403
14404
14410
14411
14417
14423
14427
14428
14429
14435
14441
14445
14446
14447
14450
14451
14454
14455
14458
14459
14465
14466
14469
14470
14472
14473
14475
14476
14479
14480
14486
14487
14493
14494
14500
14504
14508
14509
14510
14513
14514
14516
14517
14520
14521
14524
14525
14527
14528
14531
14532
14535
14536
14539
14540
14543
14544
14548
14549
14552
14553
14555
14556
14562
14563
14566
14567
14569
14570
14572
14573
14579
14580
14586
14587
14590
14591
14597
14601
14603
14604
14607
14608
14610
14611
14613
14614
14618
14619
14620
14621
14622
14623
14624
14625
14626
14627
14628
14629
14630
14633
14634
14635
14636
14637
14638
14639
14640
14641
14642
14643
14644
14645
14646
14647
14648
14649
14650
14651
14652
14653
14654
14655
14656
14657
14658
14659
14660
14664
14665
14666
14667
14668
14669
14670
14671
14672
14673
14674
14675
14676
14677
14678
14679
14680
14681
14682
14683
14686
14687
14693
14694
14697
14701
14702
14703
14704
14705
14711
14712
14713
14714
14717
14718
14719
14720
14721
14722
14723
14724
14725
14726
14728
14729
14730
14731
14732
14736
14737
14738
14741
14742
14743
14746
14747
14748
14749
14751
14752
14753
14754
14755
14758
14759
14760
14761
14762
14763
14764
14765
14766
14767
14768
14769
14770
14771
14772
14773
14774
14775
14776
14779
14780
14781
14782
14783
14784
14785
14786
14787
14788
14789
14790
14791
14792
14795
14796
14797
14798
14799
14800
14801
14802
14803
14804
14805
14806
14807
14808
14809
14810
14811
14814
14815
14818
14822
14823
14824
14825
14826
14827
14828
14829
14832
14833
14834
14836
14839
14842
14845
14848
14851
14854
14857
14860
14863
14864
14866
14872
14878
14884
14890
14896
14902
14908
14914
14920
14921
14923
14926
14929
14932
14935
14938
14941
14944
14947
14950
14951
14953
14956
14961
14964
14969
14972
14977
14980
14985
14988
14993
14996
15001
15004
15009
15012
15017
15020
15025
15026
15027
15028
15029
15032
15033
15034
15035
15036
15037
15038
15039
15040
15041
15042
15043
15044
15045
15046
15047
15048
15049
15050
15051
15052
15053
15054
15055
15056
15057
15058
15059
15060
15061
15062
15063
15064
15065
15066
15067
15068
15069
15070
15071
15072
15073
15074
15075
15076
15077
15078
15079
15080
15084
15085
15086
15087
15088
15091
15092
15093
15094
15096
15097
15098
15099
15100
15103
15104
15105
15106
15107
15108
15109
15110
15111
15112
15113
15114
15115
15116
15117
15118
15119
15120
15121
15122
15123
15124
15125
15126
15127
15128
15129
15130
15131
15132
15133
15134
15135
15136
15137
15138
15139
15140
15141
15142
15148
15149
15150
15151
15152
15153
15154
15155
15156
15160
15161
15162
15163
15169
15170
15171
15172
15173
15174
15175
15176
15177
15178
15179
15180
15181
15182
15184
15185
15186
15187
15188
15192
15193
15194
15195
15196
15199
15200
15201
15202
15204
15205
15206
15207
15208
15211
15212
15213
15214
15215
15216
15217
15218
15219
15220
15221
15222
15223
15224
15225
15226
15227
15228
15229
15230
15231
15232
15233
15234
15235
15236
15237
15238
15239
15240
15241
15242
15243
15244
15245
15246
15247
15248
15249
15250
15251
15252
15253
15254
15255
15256
15257
15258
15259
15263
15264
15265
15268
15269
15270
15273
15274
15275
15276
15278
15279
15280
15281
15282
15285
15286
15287
15288
15289
15290
15291
15292
15293
15294
15295
15296
15297
15303
15304
15305
15306
15307
15308
15309
15312
15313
15314
15315
15316
15317
15318
15319
15320
15321
15322
15323
15324
15325
15326
15327
15328
15329
15330
15331
15332
15333
15334
15335
15336
15337
15338
15339
15340
15341
15342
15346
15347
15348
15349
15350
15351
15352
15353
15354
15357
15358
15359
15360
15361
15362
15363
15364
15365
15367
15368
15369
15370
15371
15375
15376
15377
15380
15381
15382
15383
15384
15385
15387
15388
15389
15390
15391
15394
15395
15397
15398
15399
15400
15402
15403
15404
15405
15406
15407
15408
15409
15412
15413
15414
15415
15416
15417
15418
15419
15420
15421
15424
15425
15426
15427
15428
15429
15431
15432
15433
15434
15435
15436
15437
15438
15439
15440
15441
15442
15443
15444
15445
15446
15447
15448
15451
15452
15455
15456
15457
15458
15459
15460
15463
15464
15467
15471
15472
15473
15474
15475
15476
15477
15478
15479
15482
15483
15484
15486
15487
15488
15489
15490
15491
15492
15494
15495
15496
15497
15498
15502
15503
15504
15505
15506
15507
15508
15509
15510
15513
15514
15515
15516
15517
15518
15519
15520
15521
15523
15524
15525
15526
15527
15529
15533
15534
15535
15538
15539
15540
15543
15544
15545
15546
15548
15549
15550
15551
15552
15555
15556
15557
15558
15559
15560
15561
15562
15563
15564
15565
15566
15567
15573
15574
15575
15576
15577
15578
15579
15580
15581
15582
15583
15584
15585
15586
15587
15588
15589
15590
15591
15592
15593
15594
15595
15596
15597
15598
15599
15600
15601
15602
15603
15604
15605
15606
15607
15608
15609
15613
15614
15615
15618
15619
15620
15621
15622
15623
15625
15626
15627
15628
15629
15632
15633
15635
15636
15637
15638
15640
15641
15642
15643
15644
15645
15646
15647
15650
15651
15652
15653
15654
15655
15656
15657
15658
15659
15662
15663
15664
15665
15666
15667
15669
15670
15671
15672
15673
15674
15675
15676
15677
15678
15679
15680
15681
15682
15683
15684
15685
15686
15689
15690
15693
15694
15695
15696
15697
15698
15699
15703
15704
15705
15706
15707
15708
15709
15710
15711
15712
15713
15714
15715
15716
15717
15718
15719
15720
15721
15722
15723
15724
15725
15726
15727
15728
15729
15730
15731
15732
15733
15734
15735
15736
15737
15738
15739
15740
15741
15742
15743
15744
15745
15746
15747
15748
15749
15750
15751
15752
15753
15754
15755
15756
15757
15758
15759
15760
15764
15765
15766
15767
15768
15769
15770
15771
15772
15773
15774
15775
15778
15779
15782
15783
15784
15785
15786
15787
15788
15789
15790
15791
15792
15793
15794
15795
15796
15797
15798
15799
15800
15801
15802
15803
15804
15805
15806
15807
15808
15809
15813
15814
15815
15816
15817
15818
15819
15820
15821
15822
15823
15824
15825
15826
15827
15828
15829
15830
15831
15835
15836
15837
15838
15839
15840
15841
15842
15843
15844
15845
15846
15848
15849
15850
15851
15852
15853
15855
15856
15857
15858
15859
15863
15864
15865
15868
15869
15870
15871
15880
15881
15887
15891
15895
15896
15897
15898
15899
15900
15901
15903
15908
15909
15910
15912
15916
15917
15918
15919
15920
15923
15924
15925
15926
15928
15929
15930
15931
15932
15935
15936
15937
15938
15939
15940
15941
15942
15943
15944
15945
15946
15947
15953
15954
15955
15956
15957
15958
15959
15960
15961
15962
15963
15964
15965
15966
15967
15968
15969
15970
15971
15972
15973
15974
15975
15976
15977
15978
15979
15980
15986
15987
15988
15989
15990
15991
15992
15993
15994
15998
15999
16000
16003
16004
16005
16006
16007
16008
16010
16011
16012
16013
16014
16017
16018
16020
16021
16022
16023
16025
16026
16027
16028
16029
16030
16031
16032
16035
16036
16037
16038
16039
16040
16041
16042
16043
16044
16047
16048
16049
16050
16051
16052
16054
16055
16056
16057
16058
16059
16060
16061
16062
16063
16064
16065
16066
16067
16068
16069
16070
16071
16074
16075
16078
16079
16080
16081
16082
16083
16084
16088
16089
16090
16091
16092
16095
16096
16097
16098
16100
16101
16102
16103
16104
16107
16108
16109
16110
16111
16112
16113
16114
16115
16116
16117
16118
16119
16120
16121
16122
16123
16124
16125
16126
16127
16128
16129
16130
16131
16132
16133
16134
16135
16136
16137
16138
16139
16140
16141
16142
16143
16144
16145
16146
16147
16148
16149
16150
16151
16152
16153
16154
16155
16159
16160
16161
16164
16165
16166
16167
16168
16169
16171
16172
16173
16174
16175
16178
16179
16181
16182
16183
16184
16186
16187
16188
16189
16190
16191
16192
16193
16196
16197
16198
16199
16200
16201
16202
16203
16204
16205
16208
16209
16210
16211
16212
16213
16215
16216
16217
16218
16219
16220
16221
16222
16223
16224
16225
16226
16227
16228
16229
16230
16231
16232
16235
16236
16239
16240
16241
16242
16243
16244
16245
16249
16250
16251
16254
16255
16256
16257
16266
16267
16273
16277
16281
16282
16283
16284
16285
16286
16287
16289
16294
16295
16296
16298
16300
16304
16305
16306
16309
16310
16311
16312
16313
16314
16316
16317
16318
16319
16320
16323
16324
16326
16327
16328
16329
16331
16332
16333
16334
16335
16336
16337
16338
16341
16342
16343
16344
16345
16346
16347
16348
16349
16350
16353
16354
16355
16356
16357
16358
16360
16361
16362
16363
16364
16365
16366
16367
16368
16369
16370
16371
16372
16373
16374
16375
16376
16377
16380
16381
16384
16385
16386
16387
16388
16389
16390
16394
16395
16396
16399
16400
16401
16402
16403
16404
16405
16406
16407
16408
16409
16410
16411
16412
16413
16415
16416
16417
16418
16419
16423
16424
16425
16426
16427
16430
16431
16432
16433
16435
16436
16437
16438
16439
16442
16443
16444
16445
16446
16447
16448
16449
16450
16451
16452
16453
16454
16460
16461
16462
16463
16464
16465
16466
16467
16468
16469
16470
16471
16472
16473
16474
16475
16476
16477
16478
16479
16480
16481
16482
16483
16484
16485
16486
16487
16488
16489
16490
16491
16492
16493
16494
16495
16496
16500
16501
16502
16503
16504
16507
16508
16511
16512
16515
16516
16520
16521
16525
16526
16529
16530
16533
16534
16537
16538
16542
16546
16547
16548
16549
16550
16551
16552
16553
16554
16555
16556
16559
16560
16561
16562
16563
16564
16565
16566
16567
16568
16570
16571
16572
16573
16577
16578
16579
16582
16583
16584
16587
16588
16589
16590
16592
16593
16594
16595
16596
16599
16600
16601
16602
16603
16604
16605
16606
16607
16608
16609
16610
16611
16617
16618
16619
16620
16621
16622
16623
16626
16627
16628
16629
16630
16631
16632
16633
16634
16635
16636
16637
16638
16639
16640
16641
16642
16643
16644
16645
16646
16647
16648
16649
16650
16651
16652
16653
16654
16655
16656
16660
16661
16662
16665
16666
16667
16668
16669
16670
16672
16673
16674
16675
16676
16679
16680
16682
16683
16684
16685
16687
16688
16689
16690
16691
16692
16693
16694
16697
16698
16699
16700
16701
16702
16703
16704
16705
16706
16709
16710
16711
16712
16713
16714
16716
16717
16718
16719
16720
16721
16722
16723
16724
16725
16726
16727
16728
16729
16730
16731
16732
16733
16736
16737
16740
16741
16742
16743
16744
16745
16746
16750
16751
16752
16753
16754
16755
16756
16757
16758
16759
16760
16761
16762
16763
16764
16765
16766
16767
16768
16769
16770
16771
16772
16773
16774
16775
16776
16777
16778
16779
16780
16781
16782
16783
16784
16785
16786
16787
16788
16789
16790
16791
16792
16793
16794
16795
16796
16797
16798
16799
16800
16801
16802
16803
16804
16805
16806
16807
16808
16809
16810
16811
16812
16816
16817
16818
16821
16822
16823
16826
16827
16828
16829
16831
16832
16833
16834
16835
16838
16839
16840
16841
16842
16843
16844
16845
16846
16847
16848
16849
16850
16851
16852
16853
16854
16855
16856
16859
16860
16861
16862
16863
16864
16865
16866
16867
16868
16869
16870
16871
16872
16875
16876
16877
16878
16879
16880
16881
16882
16883
16884
16885
16886
16887
16888
16889
16890
16891
16894
16895
16898
16902
16903
16904
16906
16909
16912
16915
16918
16921
16924
16927
16930
16933
16934
16936
16942
16948
16954
16960
16966
16972
16978
16984
16990
16991
16993
16996
16999
17002
17005
17008
17011
17014
17017
17020
17021
17023
17026
17031
17034
17039
17042
17047
17050
17055
17058
17063
17066
17071
17074
17079
17082
17087
17090
17095
17099
17100
17101
17104
17105
17106
17107
17116
17117
17123
17127
17131
17132
17133
17134
17135
17136
17137
17139
17144
17145
17146
17147
17148
17154
17158
17162
17163
17164
17165
17170
17171
17172
17173
17174
17180
17184
17188
17189
17190
17191
17196
17197
17198
17199
17200
17202
17207
17208
17209
17210
17211
17217
17221
17225
17226
17227
17228
17233
17234
17235
17236
17237
17243
17247
17251
17252
17253
17254
17259
17260
17261
17262
17263
17265
17267
17269
17273
17274
17275
17276
17277
17278
17279
17280
17281
17282
17283
17284
17285
17288
17289
17290
17291
17292
17293
17294
17295
17296
17297
17298
17299
17300
17301
17302
17303
17304
17305
17306
17307
17308
17309
17310
17311
17312
17313
17314
17315
17319
17320
17321
17322
17323
17324
17325
17326
17327
17328
17329
17330
17331
17332
17333
17334
17335
17336
17337
17342
17343
17344
17346
17350
17351
17352
17353
17354
17355
17356
17357
17358
17359
17360
17361
17362
17364
17365
17366
17367
17368
17369
17370
17371
17373
17374
17375
17376
17380
17381
17382
17385
17386
17387
17388
17389
17390
17392
17393
17394
17395
17396
17399
17400
17402
17403
17404
17405
17407
17408
17409
17410
17411
17412
17413
17414
17417
17418
17419
17420
17421
17422
17423
17424
17425
17426
17429
17430
17431
17432
17433
17434
17436
17437
17438
17439
17440
17441
17442
17443
17444
17445
17446
17447
17448
17449
17450
17451
17452
17453
17456
17457
17460
17461
17462
17463
17464
17465
17466
17471
17472
17473
17475
17479
17480
17481
17483
17486
17489
17492
17495
17498
17501
17504
17507
17510
17511
17513
17519
17525
17531
17537
17543
17549
17555
17561
17567
17568
17570
17573
17576
17579
17582
17585
17588
17591
17594
17597
17598
17600
17603
17608
17611
17616
17619
17624
17627
17632
17635
17640
17643
17648
17651
17656
17659
17664
17667
17672
17674
17678
17679
17680
17681
17682
17683
17684
17685
17686
17689
17690
17691
17692
17693
17694
17695
17696
17697
17699
17700
17701
17702
17703
17707
17708
17709
17712
17713
17714
17715
17716
17717
17719
17720
17721
17722
17723
17726
17727
17729
17730
17731
17732
17734
17735
17736
17737
17738
17739
17740
17741
17744
17745
17746
17747
17748
17749
17750
17751
17752
17753
17754
17755
17756
17757
17758
17760
17761
17762
17763
17764
17765
17766
17767
17768
17769
17770
17771
17772
17773
17774
17775
17776
17777
17780
17781
17784
17785
17786
17787
17788
17789
17790
17794
17795
17796
17799
17800
17801
17802
17803
17804
17806
17807
17808
17809
17810
17813
17814
17816
17817
17818
17819
17821
17822
17823
17824
17825
17826
17827
17828
17831
17832
17833
17834
17835
17836
17837
17838
17839
17840
17843
17844
17845
17846
17847
17848
17850
17851
17852
17853
17854
17855
17856
17857
17858
17859
17860
17861
17862
17863
17864
17865
17866
17867
17870
17871
17874
17875
17876
17877
17878
17879
17880
17884
17885
17886
17887
17888
17889
17890
17891
17892
17893
17894
17895
17896
17897
17898
17899
17900
17901
17902
17903
17905
17906
17909
17910
17911
17916
17917
17918
17919
17920
17926
17930
17931
17932
17933
17934
17937
17938
17941
17942
17945
17946
17950
17951
17955
17956
17959
17960
17963
17964
17967
17968
17972
17976
17977
17978
17981
17982
17983
17986
17987
17988
17989
17991
17992
17993
17994
17995
17998
17999
18000
18001
18003
18004
18005
18006
18007
18008
18009
18010
18011
18012
18013
18014
18015
18016
18017
18018
18019
18020
18021
18022
18023
18024
18025
18026
18027
18028
18029
18030
18031
18032
18033
18034
18035
18036
18037
18038
18039
18040
18041
18042
18043
18044
18045
18046
18047
18050
18051
18054
18058
18059
18060
18061
18062
18065
18066
18067
18068
18070
18071
18072
18073
18074
18077
18078
18079
18080
18081
18082
18083
18084
18085
18086
18087
18088
18089
18090
18091
18092
18093
18094
18095
18098
18099
18100
18101
18102
18103
18104
18105
18106
18107
18108
18109
18110
18111
18112
18113
18114
18115
18116
18117
18118
18119
18120
18121
18122
18123
18124
18125
18126
18127
18128
18132
18133
18134
18135
18136
18137
18138
18139
18140
18143
18144
18145
18146
18147
18148
18149
18150
18151
18153
18154
18155
18156
18157
18161
18162
18163
18164
18165
18168
18169
18170
18171
18173
18174
18175
18176
18177
18180
18181
18182
18183
18184
18185
18186
18187
18188
18189
18190
18191
18192
18193
18194
18195
18196
18197
18198
18199
18200
18201
18202
18203
18204
18205
18206
18207
18208
18209
18210
18211
18212
18213
18214
18215
18216
18217
18218
18219
18225
18226
18227
18228
18229
18230
18231
18232
18233
18237
18238
18239
18242
18243
18244
18245
18246
18247
18249
18250
18251
18252
18253
18256
18257
18259
18260
18261
18262
18264
18265
18266
18267
18268
18269
18270
18271
18274
18275
18276
18277
18278
18279
18280
18281
18282
18283
18286
18287
18288
18289
18290
18291
18293
18294
18295
18296
18297
18298
18299
18300
18301
18302
18303
18304
18305
18306
18307
18308
18309
18310
18313
18314
18317
18318
18319
18320
18321
18322
18323
18327
18328
18329
18332
18333
18334
18337
18338
18339
18340
18342
18343
18344
18345
18346
18349
18350
18351
18352
18354
18355
18356
18357
18358
18359
18360
18361
18362
18363
18364
18365
18366
18367
18368
18369
18370
18371
18372
18373
18374
18376
18377
18378
18379
18380
18383
18384
18385
18386
18387
18388
18389
18390
18391
18392
18393
18394
18395
18396
18397
18398
18399
18400
18401
18402
18403
18405
18407
18411
18412
18413
18416
18417
18418
18419
18420
18421
18423
18424
18425
18426
18427
18430
18431
18433
18434
18435
18436
18438
18439
18440
18441
18442
18443
18444
18445
18448
18449
18450
18451
18452
18453
18454
18455
18456
18457
18460
18461
18462
18463
18464
18465
18467
18468
18469
18470
18471
18472
18473
18474
18475
18476
18477
18478
18479
18480
18481
18482
18483
18484
18487
18488
18491
18492
18493
18494
18495
18496
18497
18501
18502
18503
18506
18507
18508
18511
18512
18513
18514
18516
18517
18518
18519
18520
18523
18524
18525
18526
18527
18528
18529
18530
18531
18532
18533
18534
18535
18541
18542
18543
18544
18545
18546
18547
18550
18551
18552
18553
18554
18555
18556
18557
18558
18559
18560
18561
18562
18563
18564
18565
18566
18567
18568
18569
18570
18571
18572
18573
18574
18575
18576
18577
18578
18579
18580
18585
18586
18587
18588
18589
18590
18591
18592
18593
18594
18595
18596
18597
18598
18599
18602
18603
18604
18605
18606
18607
18608
18609
18610
18611
18612
18613
18614
18620
18621
18622
18623
18624
18625
18626
18627
18628
18629
18630
18631
18632
18633
18634
18635
18636
18637
18638
18639
18640
18641
18642
18643
18645
18648
18649
18650
18651
18652
18653
18654
18655
18656
18657
18658
18659
18660
18661
18662
18665
18666
18667
18668
18669
18670
18673
18674
18677
18681
18682
18683
18684
18685
18686
18687
18688
18689
18690
18691
18692
18695
18696
18697
18698
18699
18700
18701
18702
18703
18705
18706
18707
18708
18713
18714
18715
18716
18717
18723
18727
18728
18729
18730
18731
18732
18733
18734
18735
18736
18737
18741
18742
18743
18744
18746
18747
18748
18749
18750
18751
18752
18754
18758
18759
18760
18761
18763
18764
18765
18771
18772
18773
18774
18775
18779
18780
18781
18782
18783
18784
18785
18786
18787
18788
18789
18790
18791
18792
18793
18794
18795
18796
18797
18798
18800
18801
18804
18805
18806
18810
18811
18812
18815
18816
18817
18818
18819
18820
18822
18823
18824
18825
18826
18829
18830
18832
18833
18834
18835
18837
18838
18839
18840
18841
18842
18843
18844
18847
18848
18849
18850
18851
18852
18853
18854
18855
18856
18859
18860
18861
18862
18863
18864
18866
18867
18868
18869
18870
18871
18872
18873
18874
18875
18876
18877
18878
18879
18880
18881
18882
18883
18886
18887
18890
18891
18892
18893
18894
18895
18898
18899
18902
18906
18907
18908
18909
18910
18913
18914
18915
18916
18918
18919
18920
18921
18922
18925
18926
18927
18928
18929
18930
18931
18932
18933
18934
18935
18936
18937
18938
18939
18940
18941
18942
18943
18944
18945
18946
18947
18948
18949
18950
18951
18952
18953
18956
18957
18958
18959
18960
18961
18962
18963
18964
18965
18966
18967
18968
18969
18970
18971
18972
18973
18974
18975
18976
18980
18981
18982
18983
18984
18985
18986
18987
18988
18991
18992
18993
18994
18995
18996
18997
18998
18999
19001
19002
19003
19004
19005
19009
19010
19011
19013
19016
19019
19022
19025
19028
19031
19034
19037
19040
19041
19043
19049
19055
19061
19067
19073
19079
19085
19091
19097
19098
19100
19103
19106
19109
19112
19115
19118
19121
19124
19127
19128
19130
19133
19138
19141
19146
19149
19154
19157
19162
19165
19170
19173
19178
19181
19186
19189
19194
19197
19202
19207
19208
19209
19210
19211
19217
19222
19223
19224
19230
19231
19234
19235
19241
19242
19245
19246
19249
19250
19256
19257
19260
19261
19263
19264
19267
19268
19274
19278
19282
19283
19284
19286
19287
19293
19294
19298
19299
19305
19306
19312
19318
19322
19323
19324
19330
19336
19340
19341
19342
19345
19346
19349
19350
19353
19354
19360
19361
19364
19365
19367
19368
19370
19371
19374
19375
19381
19382
19388
19389
19395
19399
19403
19404
19405
19408
19409
19411
19412
19415
19416
19419
19420
19422
19423
19426
19427
19430
19431
19434
19435
19438
19439
19443
19444
19447
19448
19450
19451
19457
19458
19461
19462
19464
19465
19467
19468
19474
19475
19481
19482
19485
19486
19492
19496
19498
19499
19502
19503
19505
19506
19508
19509
19511
19512
19515
19516
19522
19523
19526
19528
19532
19533
19534
19537
19538
19539
19542
19543
19544
19545
19547
19548
19549
19550
19551
19554
19555
19556
19557
19558
19559
19560
19561
19562
19563
19564
19565
19566
19567
19568
19569
19570
19571
19572
19575
19576
19577
19578
19579
19580
19581
19582
19583
19584
19585
19586
19587
19588
19589
19590
19591
19592
19593
19594
19595
19596
19597
19598
19599
19600
19601
19602
19603
19604
19605
19608
19612
19613
19614
19617
19618
19619
19622
19623
19624
19625
19627
19628
19629
19630
19633
19634
19637
19638
19639
19640
19641
19642
19643
19644
19645
19646
19647
19648
19649
19650
19651
19652
19653
19654
19655
19656
19657
19658
19659
19660
19661
19662
19663
19664
19665
19666
19667
19668
19669
19670
19671
19672
19673
19674
19675
19676
19677
19678
19679
19680
19681
19682
19683
19684
19687
19688
19691
19695
19696
19697
19700
19701
19702
19703
19704
19705
19707
19708
19709
19710
19711
19714
19715
19717
19718
19719
19720
19722
19723
19724
19725
19726
19727
19728
19729
19732
19733
19734
19735
19736
19737
19738
19739
19740
19741
19744
19745
19746
19747
19748
19749
19751
19752
19753
19754
19755
19756
19757
19758
19759
19760
19761
19762
19763
19764
19765
19766
19767
19768
19771
19772
19775
19776
19777
19778
19779
19780
19781
19785
19786
19787
19790
19791
19792
19793
19794
19795
19797
19798
19799
19800
19801
19804
19805
19807
19808
19809
19810
19812
19813
19814
19815
19816
19817
19818
19819
19822
19823
19824
19825
19826
19827
19828
19829
19830
19831
19834
19835
19836
19837
19838
19839
19841
19842
19843
19844
19845
19846
19847
19848
19849
19850
19851
19852
19853
19854
19855
19856
19857
19858
19861
19862
19865
19866
19867
19868
19869
19870
19871
19873
19877
19878
19882
19883
19884
19887
19888
19889
19890
19891
19892
19894
19895
19896
19897
19898
19901
19902
19904
19905
19906
19907
19909
19910
19911
19912
19913
19914
19915
19916
19919
19920
19921
19922
19923
19924
19925
19926
19927
19928
19931
19932
19933
19934
19935
19936
19938
19939
19940
19941
19942
19943
19944
19945
19946
19947
19948
19949
19950
19951
19952
19953
19954
19955
19958
19959
19962
19963
19964
19965
19966
19967
19968
19971
19972
19973
19976
19977
19980
19981
19984
19985
19988
19989
19992
19993
19996
19997
19999
20000
20006
20010
20014
20015
20016
20019
20020
20022
20023
20029
20030
20033
20034
20037
20038
20044
20045
20048
20049
20052
20053
20056
20057
20059
20060
20065
20066
20069
20070
20071
20072
20075
20076
20079
20080
20086
20092
20096
20097
20098
20100
20101
20107
20111
20112
20114
20115
20118
20119
20122
20123
20126
20127
20130
20131
20134
20135
20138
20139
20142
20143
20144
20145
20151
20155
20159
20160
20161
20163
20164
20167
20168
20171
20172
20176
20177
20183
20189
20193
20194
20195
20196
20201
20202
20205
20206
20208
20209
20212
20213
20215
20216
20219
20220
20226
20230
20231
20236
20237
20242
20243
20245
20246
20249
20250
20251
20256
20257
20263
20267
20268
20271
20272
20277
20278
20283
20284
20287
20288
20290
20291
20294
20295
20301
20307
20311
20312
20313
20316
20317
20319
20320
20323
20324
20327
20328
20331
20332
20335
20336
20342
20343
20346
20347
20350
20351
20354
20355
20357
20358
20360
20361
20367
20371
20375
20376
20377
20383
20389
20393
20394
20395
20398
20399
20402
20403
20406
20407
20410
20411
20415
20416
20419
20420
20423
20424
20427
20428
20431
20432
20437
20438
20444
20450
20454
20455
20456
20458
20459
20461
20462
20465
20466
20469
20470
20471
20472
20474
20475
20481
20485
20489
20490
20491
20493
20494
20497
20498
20500
20501
20504
20505
20508
20509
20511
20512
20515
20516
20518
20519
20522
20523
20526
20527
20533
20534
20537
20538
20541
20542
20544
20545
20547
20548
20551
20552
20555
20556
20562
20563
20573
20574
20580
20586
20590
20591
20592
20594
20595
20601
20605
20606
20609
20610
20613
20614
20616
20617
20620
20621
20623
20624
20627
20628
20631
20632
20635
20636
20638
20639
20642
20643
20646
20647
20652
20653
20655
20656
20659
20660
20662
20663
20669
20675
20679
20680
20681
20687
20693
20697
20698
20699
20702
20703
20709
20710
20713
20714
20720
20724
20725
20728
20729
20732
20733
20736
20737
20739
20740
20741
20742
20745
20746
20749
20750
20756
20760
20761
20762
20765
20766
20767
20768
20769
20770
20772
20773
20774
20775
20776
20779
20780
20782
20783
20784
20785
20787
20788
20789
20790
20791
20792
20793
20794
20797
20798
20799
20800
20801
20802
20803
20804
20805
20806
20809
20810
20811
20812
20813
20814
20816
20817
20818
20819
20820
20821
20822
20823
20824
20825
20826
20827
20828
20829
20830
20831
20832
20833
20836
20837
20840
20841
20842
20843
20844
20845
20846
20851
20852
20853
20855
20859
20860
20861
20862
20863
20866
20867
20868
20869
20871
20872
20873
20874
20875
20878
20879
20880
20881
20882
20883
20884
20885
20886
20887
20888
20889
20890
20891
20892
20893
20894
20895
20896
20897
20898
20899
20900
20901
20902
20903
20904
20905
20906
20907
20908
20909
20910
20911
20912
20913
20914
20915
20916
20917
20918
20919
20920
20921
20922
20923
20924
20925
20926
20928
20930
20934
20935
20936
20939
20940
20941
20942
20943
20944
20946
20947
20948
20949
20950
20953
20954
20956
20957
20958
20959
20961
20962
20963
20964
20965
20966
20967
20968
20971
20972
20973
20974
20975
20976
20977
20978
20979
20980
20983
20984
20985
20986
20987
20988
20990
20991
20992
20993
20994
20995
20996
20997
20998
20999
21000
21001
21002
21003
21004
21005
21006
21007
21010
21011
21014
21015
21016
21017
21018
21019
21020
21024
21025
21026
21029
21030
21031
21032
21033
21034
21036
21037
21038
21039
21040
21043
21044
21046
21047
21048
21049
21051
21052
21053
21054
21055
21056
21057
21058
21061
21062
21063
21064
21065
21066
21067
21068
21069
21070
21073
21074
21075
21076
21077
21078
21080
21081
21082
21083
21084
21085
21086
21087
21088
21089
21090
21091
21092
21093
21094
21095
21096
21097
21100
21101
21104
21105
21106
21107
21108
21109
21110
21114
21115
21116
21119
21120
21121
21122
21123
21124
21126
21127
21128
21129
21130
21133
21134
21136
21137
21138
21139
21141
21142
21143
21144
21145
21146
21147
21148
21151
21152
21153
21154
21155
21156
21157
21158
21159
21160
21163
21164
21165
21166
21167
21168
21170
21171
21172
21173
21174
21175
21176
21177
21178
21179
21180
21181
21182
21183
21184
21185
21186
21187
21190
21191
21194
21195
21196
21197
21198
21199
21200
21204
21205
21206
21209
21210
21211
21212
21213
21214
21216
21217
21218
21219
21220
21223
21224
21226
21227
21228
21229
21231
21232
21233
21234
21235
21236
21237
21238
21241
21242
21243
21244
21245
21246
21247
21248
21249
21250
21253
21254
21255
21256
21257
21258
21260
21261
21262
21263
21264
21265
21266
21267
21268
21269
21270
21271
21272
21273
21274
21275
21276
21277
21280
21281
21284
21285
21286
21287
21288
21289
21290
21294
21295
21296
21297
21298
21301
21302
21303
21304
21306
21307
21308
21309
21310
21313
21314
21315
21316
21317
21318
21319
21320
21321
21322
21323
21324
21325
21326
21327
21328
21329
21330
21331
21332
21333
21334
21335
21336
21337
21338
21339
21340
21341
21342
21343
21344
21345
21346
21347
21348
21349
21350
21351
21352
21358
21359
21360
21361
21362
21363
21364
21365
21366
21371
21372
21373
21374
21375
21381
21385
21389
21390
21391
21392
21394
21398
21399
21400
21403
21404
21405
21406
21407
21408
21410
21411
21412
21413
21414
21417
21418
21420
21421
21422
21423
21425
21426
21427
21428
21429
21430
21431
21432
21435
21436
21437
21438
21439
21440
21441
21442
21443
21444
21447
21448
21449
21450
21451
21452
21454
21455
21456
21457
21458
21459
21460
21461
21462
21463
21464
21465
21466
21467
21468
21469
21470
21471
21474
21475
21478
21479
21480
21481
21482
21483
21484
21489
21490
21491
21494
21495
21496
21499
21500
21501
21502
21503
21504
21505
21506
21507
21508
21509
21512
21513
21514
21515
21516
21517
21518
21519
21520
21521
21522
21523
21524
21530
21531
21532
21533
21534
21535
21536
21539
21540
21541
21542
21543
21544
21545
21546
21547
21548
21549
21550
21551
21552
21553
21554
21555
21556
21558
21561
21562
21563
21564
21565
21566
21567
21568
21569
21570
21571
21572
21573
21574
21575
21578
21579
21580
21581
21582
21583
21584
21588
21589
21590
21593
21594
21595
21596
21597
21598
21600
21601
21602
21603
21604
21607
21608
21610
21611
21612
21613
21615
21616
21617
21618
21619
21620
21621
21622
21625
21626
21627
21628
21629
21630
21631
21632
21633
21634
21637
21638
21639
21640
21641
21642
21644
21645
21646
21647
21648
21649
21650
21651
21652
21653
21654
21655
21656
21657
21658
21659
21660
21661
21664
21665
21668
21669
21670
21671
21672
21673
21674
21678
21679
21680
21681
21682
21683
21684
21685
21688
21689
21690
21692
21695
21698
21701
21704
21707
21710
21713
21716
21719
21720
21722
21728
21734
21740
21746
21752
21758
21764
21770
21776
21777
21779
21782
21785
21788
21791
21794
21797
21800
21803
21806
21807
21809
21812
21817
21820
21825
21828
21833
21836
21841
21844
21849
21852
21857
21860
21865
21868
21873
21876
21881
21882
21883
21884
21885
21888
21889
21890
21891
21892
21893
21894
21895
21896
21897
21898
21899
21900
21901
21902
21903
21904
21905
21906
21907
21908
21909
21910
21911
21912
21913
21914
21915
21916
21917
21918
21919
21920
21921
21922
21923
21924
21925
21926
21927
21928
21929
21930
21931
21932
21933
21934
21935
21936
21941
21942
21943
21944
21945
21947
21948
21954
21959
21960
21961
21962
21963
21969
21973
21977
21978
21979
21980
21984
21985
21986
21989
21990
21991
21992
21993
21994
21996
21997
21998
21999
22000
22003
22004
22006
22007
22008
22009
22011
22012
22013
22014
22015
22016
22017
22018
22021
22022
22023
22024
22025
22026
22027
22028
22029
22030
22033
22034
22035
22036
22037
22038
22040
22041
22042
22043
22044
22045
22046
22047
22048
22049
22050
22051
22052
22053
22054
22055
22056
22057
22060
22061
22064
22065
22066
22067
22068
22069
22070
22071
22073
22075
22077
22079
22081
22083
22085
22087
22089
22091
22093
22095
22097
22099
22101
22103
22104
22106
22109
22111
22112
22114
22116
22119
22121
22122
22124
22126
22129
22131
22132
22134
22135
22137
22140
22142
22143
22145
22147
22150
22152
22153
22155
22157
22160
22162
22163
22165
22168
22170
22171
22173
22183
22186
22188
22191
22192
22194
22195
22199
22200
22202
22210
22211
22213
