\relax 
\providecommand\hyper@newdestlabel[2]{}
\providecommand\HyperFirstAtBeginDocument{\AtBeginDocument}
\HyperFirstAtBeginDocument{\ifx\hyper@anchor\@undefined
\global\let\oldcontentsline\contentsline
\gdef\contentsline#1#2#3#4{\oldcontentsline{#1}{#2}{#3}}
\global\let\oldnewlabel\newlabel
\gdef\newlabel#1#2{\newlabelxx{#1}#2}
\gdef\newlabelxx#1#2#3#4#5#6{\oldnewlabel{#1}{{#2}{#3}}}
\AtEndDocument{\ifx\hyper@anchor\@undefined
\let\contentsline\oldcontentsline
\let\newlabel\oldnewlabel
\fi}
\fi}
\global\let\hyper@last\relax 
\gdef\HyperFirstAtBeginDocument#1{#1}
\providecommand\HyField@AuxAddToFields[1]{}
\providecommand\HyField@AuxAddToCoFields[2]{}
\gdef \LT@i {\LT@entry 
    {1}{39.00009pt}\LT@entry 
    {1}{58.11125pt}\LT@entry 
    {1}{58.11125pt}\LT@entry 
    {1}{58.11125pt}\LT@entry 
    {1}{78.11131pt}\LT@entry 
    {1}{58.11125pt}\LT@entry 
    {1}{63.66817pt}\LT@entry 
    {1}{58.11125pt}\LT@entry 
    {1}{54.55565pt}\LT@entry 
    {1}{68.62656pt}\LT@entry 
    {1}{77.3196pt}\LT@entry 
    {1}{88.11269pt}\LT@entry 
    {1}{101.43913pt}\LT@entry 
    {1}{57.86122pt}}
\gdef \LT@ii {\LT@entry 
    {1}{39.00009pt}\LT@entry 
    {1}{53.11124pt}\LT@entry 
    {1}{78.11131pt}\LT@entry 
    {1}{53.11124pt}\LT@entry 
    {1}{53.11124pt}\LT@entry 
    {1}{68.62656pt}\LT@entry 
    {1}{57.86122pt}\LT@entry 
    {1}{0.0pt}}
\@writefile{toc}{\contentsline {section}{\numberline {1}Selected Queries}{1}{section.1}\protected@file@percent }
\@writefile{toc}{\contentsline {section}{\numberline {2}Parameters}{1}{section.2}\protected@file@percent }
\@writefile{toc}{\contentsline {section}{\numberline {3}Testing}{1}{section.3}\protected@file@percent }
\@writefile{toc}{\contentsline {section}{\numberline {4}Statistics for Automata: Size(\#States)}{1}{section.4}\protected@file@percent }
