1
11
23
66
130
188
797
894
922
931
943
1022
1070
1120
1132
1207
1209
1426
1518
1521
1728
1909
2006
2273
2276
2617
2830
2930
2969
2983
3023
3026
3387
3470
3476
3608
3662
3727
3733
3830
3880
3916
3989
4410
