
	digraph sta {
	rankdir=LR
	
      
	// else states of components
      
	// source of init edge
	
	init [shape=plaintext,label="" ]
	
	// states
      "9" [shape=circle,fontcolor="black",color="black"]
      "3" [shape=circle,fontcolor="black",color="black"]
      "13" [shape=circle,fontcolor="black",color="black"]
      "7" [shape=circle,fontcolor="black",color="black"]
      "10" [shape=circle,fontcolor="black",color="black"]
      "11" [shape=circle,style=filled,fillcolor="darkgray",fontcolor="black",color="black"]
      "26" [shape=doublecircle,fontcolor="black",color="black"]
      "12" [shape=circle,fontcolor="black",color="black"]
      "14" [shape=circle,fontcolor="black",color="black"]
      "0" [shape=circle,fontcolor="black",color="black"]
      "5" [shape=circle,fontcolor="black",color="black"]
      "6" [shape=circle,fontcolor="black",color="black"]
      "22" [shape=circle,fontcolor="black",color="black"]
      "15" [shape=circle,fontcolor="black",color="black"]
      "4" [shape=circle,fontcolor="black",color="black"]
      "2" [shape=circle,fontcolor="black",color="black"]
      "20" [shape=circle,style=filled,fillcolor="darkgray",fontcolor="black",color="black"]
      "19" [shape=circle,fontcolor="black",color="black"]
      "1" [shape=circle,fontcolor="black",color="black"]
      "21" [shape=circle,fontcolor="black",color="black"]
      "24" [shape=circle,style=filled,fillcolor="darkgray",fontcolor="black",color="black"]
      "16" [shape=circle,fontcolor="black",color="black"]
      "17" [shape=circle,style=filled,fillcolor="darkgray",fontcolor="black",color="black"]
      "8" [shape=circle,fontcolor="black",color="black"]
      
	// tuple descriptors
      
	// isrules
      
	
	// start hedge
      init1[shape=plaintext,label=""]
	init1 -> "0" [shape=plaintext,label="",arrowhead=vee,fontcolor="darkgray",color="darkgray"]
      
	// start tree
      tree1[shape=plaintext,label="" ] 
      tree1 -> "0" [color=darkgray,arrowhead=vee,fontcolor=darkgray,label="&#x27E8;&#x27E9;"]
      
	// rules
      "22" -> "24" [color=darkgray,style=dashed,arrowhead=vee,fontcolor="darkgray",label=""]
"19" -> "11" [color=darkgray,style=dashed,arrowhead=vee,fontcolor="darkgray",label=""]
"21" -> "20" [color=darkgray,style=dashed,arrowhead=vee,fontcolor="darkgray",label=""]
"6" -> "11" [color=darkgray,style=dashed,arrowhead=vee,fontcolor="darkgray",label=""]
"14" -> "14" [color="brown",style=solid,arrowhead=vee,fontcolor="brown",label="-char"] 
"6" -> "6" [color="brown",style=solid,arrowhead=vee,fontcolor="brown",label="-char"] 
"9" -> "13" [color="black",style=solid,arrowhead=vee,fontcolor="black",label="-name"] 
"15" -> "11" [color=darkgray,style=dashed,arrowhead=vee,fontcolor="darkgray",label=""]
"4" -> "9" [color="gray",style=solid,arrowhead=vee,fontcolor="gray",label="-namespace"] 
"14" -> "17" [color=darkgray,style=dashed,arrowhead=vee,fontcolor="darkgray",label=""]
"1" -> "5" [color="gray",style=solid,arrowhead=vee,fontcolor="gray",label="-namespace"] 
"8" -> "13" [color="black",style=solid,arrowhead=vee,fontcolor="black",label="-name"] 
"5" -> "10" [color="black",style=solid,arrowhead=vee,fontcolor="black",label="-name"] 
"16" -> "20" [color=darkgray,style=dashed,arrowhead=vee,fontcolor="darkgray",label=""]
"7" -> "22" [color="blue",style=solid,fontcolor="blue",label="20"]
	  "0" -> "26" [color="blue",style=solid,fontcolor="blue",label="24"]
	  "15" -> "15" [color="blue",style=solid,fontcolor="blue",label="17"]
	  "15" -> "19" [color="blue",style=solid,fontcolor="blue",label="11"]
	  "15" -> "21" [color="blue",style=solid,fontcolor="blue",label="20"]
	  "19" -> "19" [color="blue",style=solid,fontcolor="blue",label="11"]
	  "19" -> "21" [color="blue",style=solid,fontcolor="blue",label="20"]
	  "21" -> "21" [color="blue",style=solid,fontcolor="blue",label="11"]
	  "16" -> "21" [color="blue",style=solid,fontcolor="blue",label="11"]
	  "16" -> "16" [color="blue",style=solid,fontcolor="blue",label="17"]
	  "4" -> "8" [color="gray",arrowhead=vee,style=solid,fontcolor="gray",label="default"]
"0" -> "3" [color="black",arrowhead=vee,style=solid,fontcolor="black",label="doc"]
"0" -> "4" [color="black",arrowhead=vee,style=solid,fontcolor="black",label="elem"]
"0" -> "2" [color="black",arrowhead=vee,style=solid,fontcolor="black",label="comment text"]
"0" -> "1" [color="black",arrowhead=vee,style=solid,fontcolor="black",label="att"]
"8" -> "12" [color="black",arrowhead=vee,style=solid,fontcolor="black",label="annotation"]
"3" -> "7" [color="black",arrowhead=vee,style=solid,fontcolor="black",label="¬x"]
"13" -> "15" [color="black",arrowhead=vee,style=solid,fontcolor="black",label="¬x"]
"10" -> "14" [color="black",arrowhead=vee,style=solid,fontcolor="black",label="¬x"]
"12" -> "15" [color="black",arrowhead=vee,style=solid,fontcolor="black",label="¬x"]
"2" -> "6" [color="black",arrowhead=vee,style=solid,fontcolor="black",label="¬x"]
"12" -> "16" [color="black",arrowhead=vee,style=solid,fontcolor="black",label="x"]

	  // title
	  labelloc="t";
	label="02194 - FXP\nmini(det_Ttyped[stepwise[]])\n";
	}